cppsimulator/cppsimulator/parsimony.vcd
$date
<date_and_time_specification>
$end
$version
ParSimony
$end
$timescale
1 ns
$end

$scope module top $end
$var wire 1 " \gray_inst/count<1>_rt_18[0] $end
$var wire 1 # \NLW_N0.C5LUT_O_UNCONNECTED[0] $end
$var wire 1 $ \gray_inst/count<2>_rt_14[0] $end
$var wire 1 ' \gray_inst/Mcount_count_lut[0] $end
$var wire 1 ) \NLW_N0_5.C5LUT_O_UNCONNECTED[0] $end
$var wire 1 + \NlwBufferSignal_out_1_OBUF/I[0] $end
$var wire 1 , \NlwBufferSignal_out_2_OBUF/I[0] $end
$var wire 1 . \NLW_N0_3.A5LUT_O_UNCONNECTED[0] $end
$var wire 1 / \ProtoComp1.CYINITGND.0[0] $end
$var wire 1 2 \NlwBufferSignal_out_5_OBUF/I[0] $end
$var wire 1 5 \NlwBufferSignal_out_3_OBUF/I[0] $end
$var wire 1 % out_3_OBUF_133[0] $end
$var wire 1 & clk_BUFGP[0] $end
$var wire 1 ( \cntr_inst/cntr_141[0] $end
$var wire 1 - out_2_OBUF_94[0] $end
$var wire 1 ! \NlwBufferSignal_gray_inst/count_0/CLK[0] $end
$var wire 1 * \NlwBufferSignal_gray_inst/count_1/CLK[0] $end
$var wire 1 : \NLW_gray_inst/Mcount_count_xor<7>_CO[1]_UNCONNECTED[0] $end
$var wire 1 < \NlwBufferSignal_gray_inst/count_7/CLK[0] $end
$var wire 1 > \NLW_gray_inst/Mcount_count_xor<7>_CO[0]_UNCONNECTED[0] $end
$var wire 1 A \NlwBufferSignal_gray_inst/count_6/CLK[0] $end
$var wire 1 B \NLW_gray_inst/Mcount_count_xor<7>_DI[3]_UNCONNECTED[0] $end
$var wire 1 D \NLW_gray_inst/Mcount_count_cy<3>_CO[1]_UNCONNECTED[0] $end
$var wire 1 F \NLW_gray_inst/Mcount_count_cy<3>_CO[0]_UNCONNECTED[0] $end
$var wire 1 I \NLW_gray_inst/Mcount_count_xor<7>_CO[2]_UNCONNECTED[0] $end
$var wire 1 J \NLW_gray_inst/Mcount_count_xor<7>_CO[3]_UNCONNECTED[0] $end
$var wire 1 N \NlwBufferSignal_gray_inst/count_5/CLK[0] $end
$var wire 1 ` \NLW_gray_inst/Mcount_count_cy<3>_CO[2]_UNCONNECTED[0] $end
$var wire 1 m \NlwBufferSignal_gray_inst/count_4/CLK[0] $end
$var wire 1 q \NlwBufferSignal_gray_inst/count_2/CLK[0] $end
$var wire 1 } \NlwBufferSignal_gray_inst/count_3/CLK[0] $end
$var wire 1 0 rst_IBUF_76[0] $end
$var wire 1 1 enable[0] $end
$var wire 1 3 out_0_OBUF_99[0] $end
$var wire 1 4 enable_IBUF_0[0] $end
$var wire 1 = out_6_OBUF_122[0] $end
$var wire 1 ? out_5_OBUF_0[0] $end
$var wire 1 @ CONST_ONE[0] $end
$var wire 1 C out_4_OBUF_143[0] $end
$var wire 1 G out_1_OBUF_128[0] $end
$var wire 1 6 \NlwBufferSignal_out_7_OBUF/I[0] $end
$var wire 1 7 \NlwBufferSignal_out_0_OBUF/I[0] $end
$var wire 1 8 \NlwBufferSignal_out_4_OBUF/I[0] $end
$var wire 1 9 \NlwBufferSignal_out_6_OBUF/I[0] $end
$var wire 1 M \NLW_N0_6.B5LUT_O_UNCONNECTED[0] $end
$var wire 1 ; clk[0] $end
$var wire 1 E VCC[0] $end
$var wire 1 H GND[0] $end
$var wire 1 K enable_IBUF_61[0] $end
$var wire 1 L rst_IBUF_0[0] $end
$var wire 1 O \gray_inst/count[7] $end
$var wire 1 P \gray_inst/count[6] $end
$var wire 1 Q \gray_inst/count[5] $end
$var wire 1 R \gray_inst/count[4] $end
$var wire 1 S \gray_inst/count[3] $end
$var wire 1 T \gray_inst/count[2] $end
$var wire 1 U \gray_inst/count[1] $end
$var wire 1 V \gray_inst/count[0] $end
$var wire 1 W \gray_inst/Result[7] $end
$var wire 1 X \gray_inst/Result[6] $end
$var wire 1 Y \gray_inst/Result[5] $end
$var wire 1 Z \gray_inst/Result[4] $end
$var wire 1 [ \gray_inst/Result[3] $end
$var wire 1 \ \gray_inst/Result[2] $end
$var wire 1 ] \gray_inst/Result[1] $end
$var wire 1 ^ \gray_inst/Result[0] $end
$var wire 1 _ \gray_inst/count<6>_rt_41[0] $end
$var wire 1 i \cntr_inst/cntr_INV_1_o[0] $end
$var wire 1 j \gray_inst/count<5>_rt_45[0] $end
$var wire 1 o \NLW_N1.A5LUT_O_UNCONNECTED[0] $end
$var wire 1 p \NLW_N0_2.B5LUT_O_UNCONNECTED[0] $end
$var wire 1 s \gray_inst/count<7>_rt_31[0] $end
$var wire 1 t \NlwBufferSignal_q_OBUF/I[0] $end
$var wire 1 v \gray_inst/count<4>_rt_49[0] $end
$var wire 1 w \NLW_N0_4.D5LUT_O_UNCONNECTED[0] $end
$var wire 1 a out[7] $end
$var wire 1 b out[6] $end
$var wire 1 c out[5] $end
$var wire 1 d out[4] $end
$var wire 1 e out[3] $end
$var wire 1 f out[2] $end
$var wire 1 k \clk_BUFGP/IBUFG_58[0] $end
$var wire 1 n out_5_OBUF_88[0] $end
$var wire 1 r \clk_BUFGP/IBUFG_0[0] $end
$var wire 1 u out_0_OBUF_0[0] $end
$var wire 1 x out_2_OBUF_0[0] $end
$var wire 1 g out[1] $end
$var wire 1 h out[0] $end
$var wire 1 l rst[0] $end
$var wire 1 y q[0] $end
$var wire 1 z \NlwBufferSignal_cntr_inst/cntr/CLK[0] $end
$var wire 1 { \gray_inst/count<3>_rt_2[0] $end
$var wire 1 ~ \NlwBufferSignal_clk_BUFGP/BUFG/IN[0] $end
$var wire 1  \gray_inst/Mcount_count_cy[3] $end
$var wire 1 | CONST_ZERO[0] $end

$upscope $end
$enddefinitions $end
#0
0!
x"
0#
x$
x%
0&
x'
x(
0)
0*
x+
x,
x-
0.
0/
x0
x1
x2
x3
x4
x5
x6
x7
x8
x9
x:
0;
0<
x=
x>
x?
1@
0A
xB
xC
xD
1E
xF
xG
0H
xI
xJ
xK
xL
0M
0N
xO
xP
xQ
xR
xS
xT
xU
xV
xW
xX
xY
xZ
x[
x\
x]
x^
x_
x`
xa
xb
xc
xd
xe
xf
xg
xh
xi
xj
0k
xl
0m
xn
1o
0p
0q
0r
xs
xt
xu
xv
0w
xx
xy
0z
x{
0|
0}
0~
x
#5
1!
1&
1*
10
11
14
1;
1<
1A
1K
1L
1N
1k
1l
1m
1q
1r
1z
1}
1~
#10
0!
0&
0*
0;
0<
0A
0N
0k
0m
0q
0r
0z
0}
0~
#15
1!
0"
0$
0%
1&
1'
0(
1*
0+
0,
0-
02
03
05
06
07
08
09
0:
1;
1<
0=
0>
0?
1A
0C
0D
0F
0G
0I
1N
0O
0P
0Q
0R
0S
0T
0U
0V
0W
0X
0Y
0Z
0[
0\
0]
1^
0_
0`
0a
0b
0c
0d
0e
0f
0g
0h
1i
0j
1k
1m
0n
1q
1r
0s
0t
0u
0v
0x
0y
1z
0{
1}
1~
0
#20
0!
0&
0*
00
0;
0<
0A
0L
0N
0k
0l
0m
0q
0r
0z
0}
0~
#25
1!
1&
0'
1(
1*
13
17
1;
1<
1A
1F
1N
1V
1]
0^
1h
0i
1k
1m
1q
1r
1t
1u
1y
1z
1}
1~
#30
0!
0&
0*
0;
0<
0A
0N
0k
0m
0q
0r
0z
0}
0~
#35
1!
1"
1&
1'
0(
1*
1+
1;
1<
1A
0F
1G
1N
1U
0V
1^
1g
1i
1k
1m
1q
1r
0t
0y
1z
1}
1~
#40
0!
0&
0*
0;
0<
0A
0N
0k
0m
0q
0r
0z
0}
0~
#45
1!
1&
0'
1(
1*
03
07
1;
1<
1A
1D
1F
1N
1V
1\
0]
0^
0h
0i
1k
1m
1q
1r
1t
0u
1y
1z
1}
1~
#50
0!
0&
0*
0;
0<
0A
0N
0k
0m
0q
0r
0z
0}
0~
#55
1!
0"
1$
1&
1'
0(
1*
1,
1-
1;
1<
1A
0D
0F
1N
1T
0U
0V
1^
1f
1i
1k
1m
1q
1r
0t
1x
0y
1z
1}
1~
#60
0!
0&
0*
0;
0<
0A
0N
0k
0m
0q
0r
0z
0}
0~
#65
1!
1&
0'
1(
1*
13
17
1;
1<
1A
1F
1N
1V
1]
0^
1h
0i
1k
1m
1q
1r
1t
1u
1y
1z
1}
1~
#70
0!
0&
0*
0;
0<
0A
0N
0k
0m
0q
0r
0z
0}
0~
#75
1!
1"
1&
1'
0(
1*
0+
1;
1<
1A
0F
0G
1N
1U
0V
1^
0g
1i
1k
1m
1q
1r
0t
0y
1z
1}
1~
#80
0!
0&
0*
0;
0<
0A
0N
0k
0m
0q
0r
0z
0}
0~
#85
1!
1&
0'
1(
1*
03
07
1;
1<
1A
1D
1F
1N
1V
1[
0\
0]
0^
1`
0h
0i
1k
1m
1q
1r
1t
0u
1y
1z
1}
1~
#90
0!
0&
0*
0;
0<
0A
0N
0k
0m
0q
0r
0z
0}
0~
#95
1!
0"
0$
1%
1&
1'
0(
1*
15
1;
1<
1A
0D
0F
1N
1S
0T
0U
0V
0Z
1[
1^
0`
1e
1i
1k
1m
1q
1r
0t
0y
1z
1{
1}
1~
0
#100
0!
0&
0*
0;
0<
0A
0N
0k
0m
0q
0r
0z
0}
0~
#105
1!
1&
0'
1(
1*
13
17
1;
1<
1A
1F
1N
1V
1]
0^
1h
0i
1k
1m
1q
1r
1t
1u
1y
1z
1}
1~
#110
0!
0&
0*
0;
0<
0A
0N
0k
0m
0q
0r
0z
0}
0~
#115
1!
1"
1&
1'
0(
1*
1+
1;
1<
1A
0F
1G
1N
1U
0V
1^
1g
1i
1k
1m
1q
1r
0t
0y
1z
1}
1~
#120
0!
0&
0*
0;
0<
0A
0N
0k
0m
0q
0r
0z
0}
0~
#125
1!
1&
0'
1(
1*
03
07
1;
1<
1A
1D
1F
1N
1V
1\
0]
0^
0h
0i
1k
1m
1q
1r
1t
0u
1y
1z
1}
1~
#130
0!
0&
0*
0;
0<
0A
0N
0k
0m
0q
0r
0z
0}
0~
#135
1!
0"
1$
1&
1'
0(
1*
0,
0-
1;
1<
1A
0D
0F
1N
1T
0U
0V
1^
0f
1i
1k
1m
1q
1r
0t
0x
0y
1z
1}
1~
#140
0!
0&
0*
0;
0<
0A
0N
0k
0m
0q
0r
0z
0}
0~
#145
1!
1&
0'
1(
1*
13
17
1;
1<
1A
1F
1N
1V
1]
0^
1h
0i
1k
1m
1q
1r
1t
1u
1y
1z
1}
1~
#150
0!
0&
0*
0;
0<
0A
0N
0k
0m
0q
0r
0z
0}
0~
#155
1!
1"
1&
1'
0(
1*
0+
1;
1<
1A
0F
0G
1N
1U
0V
1^
0g
1i
1k
1m
1q
1r
0t
0y
1z
1}
1~
#160
0!
0&
0*
0;
0<
0A
0N
0k
0m
0q
0r
0z
0}
0~
#165
1!
1&
0'
1(
1*
03
07
1;
1<
1A
1D
1F
1N
1V
1Z
0[
0\
0]
0^
1`
0h
0i
1k
1m
1q
1r
1t
0u
1y
1z
1}
1~
1
#170
0!
0&
0*
0;
0<
0A
0N
0k
0m
0q
0r
0z
0}
0~
#175
1!
0"
0$
1&
1'
0(
1*
18
1;
1<
1A
1C
0D
0F
1N
1R
0S
0T
0U
0V
1Z
0[
1^
0`
1d
1i
1k
1m
1q
1r
0t
1v
0y
1z
0{
1}
1~
0
#180
0!
0&
0*
0;
0<
0A
0N
0k
0m
0q
0r
0z
0}
0~
#185
1!
1&
0'
1(
1*
13
17
1;
1<
1A
1F
1N
1V
1]
0^
1h
0i
1k
1m
1q
1r
1t
1u
1y
1z
1}
1~
#190
0!
0&
0*
0;
0<
0A
0N
0k
0m
0q
0r
0z
0}
0~
#195
1!
1"
1&
1'
0(
1*
1+
1;
1<
1A
0F
1G
1N
1U
0V
1^
1g
1i
1k
1m
1q
1r
0t
0y
1z
1}
1~
#200
0!
0&
0*
0;
0<
0A
0N
0k
0m
0q
0r
0z
0}
0~
#205
1!
1&
0'
1(
1*
03
07
1;
1<
1A
1D
1F
1N
1V
1\
0]
0^
0h
0i
1k
1m
1q
1r
1t
0u
1y
1z
1}
1~
#210
0!
0&
0*
0;
0<
0A
0N
0k
0m
0q
0r
0z
0}
0~
#215
1!
0"
1$
1&
1'
0(
1*
1,
1-
1;
1<
1A
0D
0F
1N
1T
0U
0V
1^
1f
1i
1k
1m
1q
1r
0t
1x
0y
1z
1}
1~
#220
0!
0&
0*
0;
0<
0A
0N
0k
0m
0q
0r
0z
0}
0~
#225
1!
1&
0'
1(
1*
13
17
1;
1<
1A
1F
1N
1V
1]
0^
1h
0i
1k
1m
1q
1r
1t
1u
1y
1z
1}
1~
#230
0!
0&
0*
0;
0<
0A
0N
0k
0m
0q
0r
0z
0}
0~
#235
1!
1"
1&
1'
0(
1*
0+
1;
1<
1A
0F
0G
1N
1U
0V
1^
0g
1i
1k
1m
1q
1r
0t
0y
1z
1}
1~
#240
0!
0&
0*
0;
0<
0A
0N
0k
0m
0q
0r
0z
0}
0~
#245
1!
1&
0'
1(
1*
03
07
1;
1<
1A
1D
1F
1N
1V
1[
0\
0]
0^
1`
0h
0i
1k
1m
1q
1r
1t
0u
1y
1z
1}
1~
#250
0!
0&
0*
0;
0<
0A
0N
0k
0m
0q
0r
0z
0}
0~
#255
1!
0"
0$
0%
1&
1'
0(
1*
05
1;
1<
0>
1A
0D
0F
1N
1S
0T
0U
0V
0Y
1Z
1[
1^
0`
0e
1i
1k
1m
1q
1r
0t
0y
1z
1{
1}
1~
0
#260
0!
0&
0*
0;
0<
0A
0N
0k
0m
0q
0r
0z
0}
0~
#265
1!
1&
0'
1(
1*
13
17
1;
1<
1A
1F
1N
1V
1]
0^
1h
0i
1k
1m
1q
1r
1t
1u
1y
1z
1}
1~
#270
0!
0&
0*
0;
0<
0A
0N
0k
0m
0q
0r
0z
0}
0~
#275
1!
1"
1&
1'
0(
1*
1+
1;
1<
1A
0F
1G
1N
1U
0V
1^
1g
1i
1k
1m
1q
1r
0t
0y
1z
1}
1~
#280
0!
0&
0*
0;
0<
0A
0N
0k
0m
0q
0r
0z
0}
0~
#285
1!
1&
0'
1(
1*
03
07
1;
1<
1A
1D
1F
1N
1V
1\
0]
0^
0h
0i
1k
1m
1q
1r
1t
0u
1y
1z
1}
1~
#290
0!
0&
0*
0;
0<
0A
0N
0k
0m
0q
0r
0z
0}
0~
#295
1!
0"
1$
1&
1'
0(
1*
0,
0-
1;
1<
1A
0D
0F
1N
1T
0U
0V
1^
0f
1i
1k
1m
1q
1r
0t
0x
0y
1z
1}
1~
#300
0!
0&
0*
0;
0<
0A
0N
0k
0m
0q
0r
0z
0}
0~
#305
1!
1&
0'
1(
1*
13
17
1;
1<
1A
1F
1N
1V
1]
0^
1h
0i
1k
1m
1q
1r
1t
1u
1y
1z
1}
1~
#310
0!
0&
0*
0;
0<
0A
0N
0k
0m
0q
0r
0z
0}
0~
#315
1!
1"
1&
1'
0(
1*
0+
1;
1<
1A
0F
0G
1N
1U
0V
1^
0g
1i
1k
1m
1q
1r
0t
0y
1z
1}
1~
#320
0!
0&
0*
0;
0<
0A
0N
0k
0m
0q
0r
0z
0}
0~
#325
1!
1&
0'
1(
1*
03
07
1;
1<
1>
1A
1D
1F
1N
1V
1Y
0Z
0[
0\
0]
0^
1`
0h
0i
1k
1m
1q
1r
1t
0u
1y
1z
1}
1~
1
#330
0!
0&
0*
0;
0<
0A
0N
0k
0m
0q
0r
0z
0}
0~
#335
1!
0"
0$
1&
1'
0(
1*
12
1;
1<
0>
1?
1A
0D
0F
1N
1Q
0R
0S
0T
0U
0V
1Y
0Z
0[
1^
0`
1c
1i
1j
1k
1m
1n
1q
1r
0t
0v
0y
1z
0{
1}
1~
0
#340
0!
0&
0*
0;
0<
0A
0N
0k
0m
0q
0r
0z
0}
0~
#345
1!
1&
0'
1(
1*
13
17
1;
1<
1A
1F
1N
1V
1]
0^
1h
0i
1k
1m
1q
1r
1t
1u
1y
1z
1}
1~
#350
0!
0&
0*
0;
0<
0A
0N
0k
0m
0q
0r
0z
0}
0~
#355
1!
1"
1&
1'
0(
1*
1+
1;
1<
1A
0F
1G
1N
1U
0V
1^
1g
1i
1k
1m
1q
1r
0t
0y
1z
1}
1~
#360
0!
0&
0*
0;
0<
0A
0N
0k
0m
0q
0r
0z
0}
0~
#365
1!
1&
0'
1(
1*
03
07
1;
1<
1A
1D
1F
1N
1V
1\
0]
0^
0h
0i
1k
1m
1q
1r
1t
0u
1y
1z
1}
1~
#370
0!
0&
0*
0;
0<
0A
0N
0k
0m
0q
0r
0z
0}
0~
#375
1!
0"
1$
1&
1'
0(
1*
1,
1-
1;
1<
1A
0D
0F
1N
1T
0U
0V
1^
1f
1i
1k
1m
1q
1r
0t
1x
0y
1z
1}
1~
#380
0!
0&
0*
0;
0<
0A
0N
0k
0m
0q
0r
0z
0}
0~
#385
1!
1&
0'
1(
1*
13
17
1;
1<
1A
1F
1N
1V
1]
0^
1h
0i
1k
1m
1q
1r
1t
1u
1y
1z
1}
1~
#390
0!
0&
0*
0;
0<
0A
0N
0k
0m
0q
0r
0z
0}
0~
#395
1!
1"
1&
1'
0(
1*
0+
1;
1<
1A
0F
0G
1N
1U
0V
1^
0g
1i
1k
1m
1q
1r
0t
0y
1z
1}
1~
#400
0!
0&
0*
0;
0<
0A
0N
0k
0m
0q
0r
0z
0}
0~
#405
1!
1&
0'
1(
1*
03
07
1;
1<
1A
1D
1F
1N
1V
1[
0\
0]
0^
1`
0h
0i
1k
1m
1q
1r
1t
0u
1y
1z
1}
1~
#410
0!
0&
0*
0;
0<
0A
0N
0k
0m
0q
0r
0z
0}
0~
#415
1!
0"
0$
1%
1&
1'
0(
1*
15
1;
1<
1A
0D
0F
1N
1S
0T
0U
0V
0Z
1[
1^
0`
1e
1i
1k
1m
1q
1r
0t
0y
1z
1{
1}
1~
0
#420
0!
0&
0*
0;
0<
0A
0N
0k
0m
0q
0r
0z
0}
0~
#425
1!
1&
0'
1(
1*
13
17
1;
1<
1A
1F
1N
1V
1]
0^
1h
0i
1k
1m
1q
1r
1t
1u
1y
1z
1}
1~
#430
0!
0&
0*
0;
0<
0A
0N
0k
0m
0q
0r
0z
0}
0~
#435
1!
1"
1&
1'
0(
1*
1+
1;
1<
1A
0F
1G
1N
1U
0V
1^
1g
1i
1k
1m
1q
1r
0t
0y
1z
1}
1~
#440
0!
0&
0*
0;
0<
0A
0N
0k
0m
0q
0r
0z
0}
0~
#445
1!
1&
0'
1(
1*
03
07
1;
1<
1A
1D
1F
1N
1V
1\
0]
0^
0h
0i
1k
1m
1q
1r
1t
0u
1y
1z
1}
1~
#450
0!
0&
0*
0;
0<
0A
0N
0k
0m
0q
0r
0z
0}
0~
#455
1!
0"
1$
1&
1'
0(
1*
0,
0-
1;
1<
1A
0D
0F
1N
1T
0U
0V
1^
0f
1i
1k
1m
1q
1r
0t
0x
0y
1z
1}
1~
#460
0!
0&
0*
0;
0<
0A
0N
0k
0m
0q
0r
0z
0}
0~
#465
1!
1&
0'
1(
1*
13
17
1;
1<
1A
1F
1N
1V
1]
0^
1h
0i
1k
1m
1q
1r
1t
1u
1y
1z
1}
1~
#470
0!
0&
0*
0;
0<
0A
0N
0k
0m
0q
0r
0z
0}
0~
#475
1!
1"
1&
1'
0(
1*
0+
1;
1<
1A
0F
0G
1N
1U
0V
1^
0g
1i
1k
1m
1q
1r
0t
0y
1z
1}
1~
#480
0!
0&
0*
0;
0<
0A
0N
0k
0m
0q
0r
0z
0}
0~
#485
1!
1&
0'
1(
1*
03
07
1;
1<
1A
1D
1F
1N
1V
1Z
0[
0\
0]
0^
1`
0h
0i
1k
1m
1q
1r
1t
0u
1y
1z
1}
1~
1
#490
0!
0&
0*
0;
0<
0A
0N
0k
0m
0q
0r
0z
0}
0~
#495
1!
0"
0$
1&
1'
0(
1*
08
1;
1<
1A
0C
0D
0F
1N
1R
0S
0T
0U
0V
1Z
0[
1^
0`
0d
1i
1k
1m
1q
1r
0t
1v
0y
1z
0{
1}
1~
0
#500
0!
0&
0*
0;
0<
0A
0N
0k
0m
0q
0r
0z
0}
0~
#505
1!
1&
0'
1(
1*
13
17
1;
1<
1A
1F
1N
1V
1]
0^
1h
0i
1k
1m
1q
1r
1t
1u
1y
1z
1}
1~
#510
0!
0&
0*
0;
0<
0A
0N
0k
0m
0q
0r
0z
0}
0~
#515
1!
1"
1&
1'
0(
1*
1+
1;
1<
1A
0F
1G
1N
1U
0V
1^
1g
1i
1k
1m
1q
1r
0t
0y
1z
1}
1~
#520
0!
0&
0*
0;
0<
0A
0N
0k
0m
0q
0r
0z
0}
0~
#525
1!
1&
0'
1(
1*
03
07
1;
1<
1A
1D
1F
1N
1V
1\
0]
0^
0h
0i
1k
1m
1q
1r
1t
0u
1y
1z
1}
1~
#530
0!
0&
0*
0;
0<
0A
0N
0k
0m
0q
0r
0z
0}
0~
#535
1!
0"
1$
1&
1'
0(
1*
1,
1-
1;
1<
1A
0D
0F
1N
1T
0U
0V
1^
1f
1i
1k
1m
1q
1r
0t
1x
0y
1z
1}
1~
#540
0!
0&
0*
0;
0<
0A
0N
0k
0m
0q
0r
0z
0}
0~
#545
1!
1&
0'
1(
1*
13
17
1;
1<
1A
1F
1N
1V
1]
0^
1h
0i
1k
1m
1q
1r
1t
1u
1y
1z
1}
1~
#550
0!
0&
0*
0;
0<
0A
0N
0k
0m
0q
0r
0z
0}
0~
#555
1!
1"
1&
1'
0(
1*
0+
1;
1<
1A
0F
0G
1N
1U
0V
1^
0g
1i
1k
1m
1q
1r
0t
0y
1z
1}
1~
#560
0!
0&
0*
0;
0<
0A
0N
0k
0m
0q
0r
0z
0}
0~
#565
1!
1&
0'
1(
1*
03
07
1;
1<
1A
1D
1F
1N
1V
1[
0\
0]
0^
1`
0h
0i
1k
1m
1q
1r
1t
0u
1y
1z
1}
1~
#570
0!
0&
0*
0;
0<
0A
0N
0k
0m
0q
0r
0z
0}
0~
#575
1!
0"
0$
0%
1&
1'
0(
1*
05
0:
1;
1<
0>
1A
0D
0F
1N
1S
0T
0U
0V
0X
1Y
1Z
1[
1^
0`
0e
1i
1k
1m
1q
1r
0t
0y
1z
1{
1}
1~
0
#580
0!
0&
0*
0;
0<
0A
0N
0k
0m
0q
0r
0z
0}
0~
#585
1!
1&
0'
1(
1*
13
17
1;
1<
1A
1F
1N
1V
1]
0^
1h
0i
1k
1m
1q
1r
1t
1u
1y
1z
1}
1~
#590
0!
0&
0*
0;
0<
0A
0N
0k
0m
0q
0r
0z
0}
0~
#595
1!
1"
1&
1'
0(
1*
1+
1;
1<
1A
0F
1G
1N
1U
0V
1^
1g
1i
1k
1m
1q
1r
0t
0y
1z
1}
1~
#600
0!
0&
0*
0;
0<
0A
0N
0k
0m
0q
0r
0z
0}
0~
#605
1!
1&
0'
1(
1*
03
07
1;
1<
1A
1D
1F
1N
1V
1\
0]
0^
0h
0i
1k
1m
1q
1r
1t
0u
1y
1z
1}
1~
#610
0!
0&
0*
0;
0<
0A
0N
0k
0m
0q
0r
0z
0}
0~
#615
1!
0"
1$
1&
1'
0(
1*
0,
0-
1;
1<
1A
0D
0F
1N
1T
0U
0V
1^
0f
1i
1k
1m
1q
1r
0t
0x
0y
1z
1}
1~
#620
0!
0&
0*
0;
0<
0A
0N
0k
0m
0q
0r
0z
0}
0~
#625
1!
1&
0'
1(
1*
13
17
1;
1<
1A
1F
1N
1V
1]
0^
1h
0i
1k
1m
1q
1r
1t
1u
1y
1z
1}
1~
#630
0!
0&
0*
0;
0<
0A
0N
0k
0m
0q
0r
0z
0}
0~
#635
1!
1"
1&
1'
0(
1*
0+
1;
1<
1A
0F
0G
1N
1U
0V
1^
0g
1i
1k
1m
1q
1r
0t
0y
1z
1}
1~
#640
0!
0&
0*
0;
0<
0A
0N
0k
0m
0q
0r
0z
0}
0~
#645
1!
1&
0'
1(
1*
03
07
1:
1;
1<
1>
1A
1D
1F
1N
1V
1X
0Y
0Z
0[
0\
0]
0^
1`
0h
0i
1k
1m
1q
1r
1t
0u
1y
1z
1}
1~
1
#650
0!
0&
0*
0;
0<
0A
0N
0k
0m
0q
0r
0z
0}
0~
#655
1!
0"
0$
1&
1'
0(
1*
19
0:
1;
1<
1=
0>
1A
0D
0F
1N
1P
0Q
0R
0S
0T
0U
0V
1X
0Y
0Z
0[
1^
1_
0`
1b
1i
0j
1k
1m
1q
1r
0t
0v
0y
1z
0{
1}
1~
0
#660
0!
0&
0*
0;
0<
0A
0N
0k
0m
0q
0r
0z
0}
0~
#665
1!
1&
0'
1(
1*
13
17
1;
1<
1A
1F
1N
1V
1]
0^
1h
0i
1k
1m
1q
1r
1t
1u
1y
1z
1}
1~
#670
0!
0&
0*
0;
0<
0A
0N
0k
0m
0q
0r
0z
0}
0~
#675
1!
1"
1&
1'
0(
1*
1+
1;
1<
1A
0F
1G
1N
1U
0V
1^
1g
1i
1k
1m
1q
1r
0t
0y
1z
1}
1~
#680
0!
0&
0*
0;
0<
0A
0N
0k
0m
0q
0r
0z
0}
0~
#685
1!
1&
0'
1(
1*
03
07
1;
1<
1A
1D
1F
1N
1V
1\
0]
0^
0h
0i
1k
1m
1q
1r
1t
0u
1y
1z
1}
1~
#690
0!
0&
0*
0;
0<
0A
0N
0k
0m
0q
0r
0z
0}
0~
#695
1!
0"
1$
1&
1'
0(
1*
1,
1-
1;
1<
1A
0D
0F
1N
1T
0U
0V
1^
1f
1i
1k
1m
1q
1r
0t
1x
0y
1z
1}
1~
#700
0!
0&
0*
0;
0<
0A
0N
0k
0m
0q
0r
0z
0}
0~
#705
1!
1&
0'
1(
1*
13
17
1;
1<
1A
1F
1N
1V
1]
0^
1h
0i
1k
1m
1q
1r
1t
1u
1y
1z
1}
1~
#710
0!
0&
0*
0;
0<
0A
0N
0k
0m
0q
0r
0z
0}
0~
#715
1!
1"
1&
1'
0(
1*
0+
1;
1<
1A
0F
0G
1N
1U
0V
1^
0g
1i
1k
1m
1q
1r
0t
0y
1z
1}
1~
#720
0!
0&
0*
0;
0<
0A
0N
0k
0m
0q
0r
0z
0}
0~
#725
1!
1&
0'
1(
1*
03
07
1;
1<
1A
1D
1F
1N
1V
1[
0\
0]
0^
1`
0h
0i
1k
1m
1q
1r
1t
0u
1y
1z
1}
1~
#730
0!
0&
0*
0;
0<
0A
0N
0k
0m
0q
0r
0z
0}
0~
#735
1!
0"
0$
1%
1&
1'
0(
1*
15
1;
1<
1A
0D
0F
1N
1S
0T
0U
0V
0Z
1[
1^
0`
1e
1i
1k
1m
1q
1r
0t
0y
1z
1{
1}
1~
0
#740
0!
0&
0*
0;
0<
0A
0N
0k
0m
0q
0r
0z
0}
0~
#745
1!
1&
0'
1(
1*
13
17
1;
1<
1A
1F
1N
1V
1]
0^
1h
0i
1k
1m
1q
1r
1t
1u
1y
1z
1}
1~
#750
0!
0&
0*
0;
0<
0A
0N
0k
0m
0q
0r
0z
0}
0~
#755
1!
1"
1&
1'
0(
1*
1+
1;
1<
1A
0F
1G
1N
1U
0V
1^
1g
1i
1k
1m
1q
1r
0t
0y
1z
1}
1~
#760
0!
0&
0*
0;
0<
0A
0N
0k
0m
0q
0r
0z
0}
0~
#765
1!
1&
0'
1(
1*
03
07
1;
1<
1A
1D
1F
1N
1V
1\
0]
0^
0h
0i
1k
1m
1q
1r
1t
0u
1y
1z
1}
1~
#770
0!
0&
0*
0;
0<
0A
0N
0k
0m
0q
0r
0z
0}
0~
#775
1!
0"
1$
1&
1'
0(
1*
0,
0-
1;
1<
1A
0D
0F
1N
1T
0U
0V
1^
0f
1i
1k
1m
1q
1r
0t
0x
0y
1z
1}
1~
#780
0!
0&
0*
0;
0<
0A
0N
0k
0m
0q
0r
0z
0}
0~
#785
1!
1&
0'
1(
1*
13
17
1;
1<
1A
1F
1N
1V
1]
0^
1h
0i
1k
1m
1q
1r
1t
1u
1y
1z
1}
1~
#790
0!
0&
0*
0;
0<
0A
0N
0k
0m
0q
0r
0z
0}
0~
#795
1!
1"
1&
1'
0(
1*
0+
1;
1<
1A
0F
0G
1N
1U
0V
1^
0g
1i
1k
1m
1q
1r
0t
0y
1z
1}
1~
#800
0!
0&
0*
0;
0<
0A
0N
0k
0m
0q
0r
0z
0}
0~
#805
1!
1&
0'
1(
1*
03
07
1;
1<
1A
1D
1F
1N
1V
1Z
0[
0\
0]
0^
1`
0h
0i
1k
1m
1q
1r
1t
0u
1y
1z
1}
1~
1
#810
0!
0&
0*
0;
0<
0A
0N
0k
0m
0q
0r
0z
0}
0~
#815
1!
0"
0$
1&
1'
0(
1*
18
1;
1<
1A
1C
0D
0F
1N
1R
0S
0T
0U
0V
1Z
0[
1^
0`
1d
1i
1k
1m
1q
1r
0t
1v
0y
1z
0{
1}
1~
0
#820
0!
0&
0*
0;
0<
0A
0N
0k
0m
0q
0r
0z
0}
0~
#825
1!
1&
0'
1(
1*
13
17
1;
1<
1A
1F
1N
1V
1]
0^
1h
0i
1k
1m
1q
1r
1t
1u
1y
1z
1}
1~
#830
0!
0&
0*
0;
0<
0A
0N
0k
0m
0q
0r
0z
0}
0~
#835
1!
1"
1&
1'
0(
1*
1+
1;
1<
1A
0F
1G
1N
1U
0V
1^
1g
1i
1k
1m
1q
1r
0t
0y
1z
1}
1~
#840
0!
0&
0*
0;
0<
0A
0N
0k
0m
0q
0r
0z
0}
0~
#845
1!
1&
0'
1(
1*
03
07
1;
1<
1A
1D
1F
1N
1V
1\
0]
0^
0h
0i
1k
1m
1q
1r
1t
0u
1y
1z
1}
1~
#850
0!
0&
0*
0;
0<
0A
0N
0k
0m
0q
0r
0z
0}
0~
