cppsimulator/cppsimulator/parsimony.vcd
$date
<date_and_time_specification>
$end
$version
ParSimony
$end
$timescale
1 ns
$end

$scope module top $end
$var wire 1 " \gray_inst/count<1>_rt_18[0] $end
$var wire 1 # \NLW_N0.C5LUT_O_UNCONNECTED[0] $end
$var wire 1 $ \gray_inst/count<2>_rt_14[0] $end
$var wire 1 ' \gray_inst/Mcount_count_lut[0] $end
$var wire 1 ) \NLW_N0_5.C5LUT_O_UNCONNECTED[0] $end
$var wire 1 + \NlwBufferSignal_out_1_OBUF/I[0] $end
$var wire 1 , \NlwBufferSignal_out_2_OBUF/I[0] $end
$var wire 1 . \NLW_N0_3.A5LUT_O_UNCONNECTED[0] $end
$var wire 1 / \ProtoComp1.CYINITGND.0[0] $end
$var wire 1 2 \NlwBufferSignal_out_5_OBUF/I[0] $end
$var wire 1 ! \NlwBufferSignal_gray_inst/count_0/CLK[0] $end
$var wire 1 * \NlwBufferSignal_gray_inst/count_1/CLK[0] $end
$var wire 1 : \NLW_gray_inst/Mcount_count_xor<7>_CO[1]_UNCONNECTED[0] $end
$var wire 1 < \NlwBufferSignal_gray_inst/count_7/CLK[0] $end
$var wire 1 > \NLW_gray_inst/Mcount_count_xor<7>_CO[0]_UNCONNECTED[0] $end
$var wire 1 A \NlwBufferSignal_gray_inst/count_6/CLK[0] $end
$var wire 1 B \NLW_gray_inst/Mcount_count_xor<7>_DI[3]_UNCONNECTED[0] $end
$var wire 1 D \NLW_gray_inst/Mcount_count_cy<3>_CO[1]_UNCONNECTED[0] $end
$var wire 1 F \NLW_gray_inst/Mcount_count_cy<3>_CO[0]_UNCONNECTED[0] $end
$var wire 1 I \NLW_gray_inst/Mcount_count_xor<7>_CO[2]_UNCONNECTED[0] $end
$var wire 1 J \NLW_gray_inst/Mcount_count_xor<7>_CO[3]_UNCONNECTED[0] $end
$var wire 1 N \NlwBufferSignal_gray_inst/count_5/CLK[0] $end
$var wire 1 ` \NLW_gray_inst/Mcount_count_cy<3>_CO[2]_UNCONNECTED[0] $end
$var wire 1 m \NlwBufferSignal_gray_inst/count_4/CLK[0] $end
$var wire 1 q \NlwBufferSignal_gray_inst/count_2/CLK[0] $end
$var wire 1 } \NlwBufferSignal_gray_inst/count_3/CLK[0] $end
$var wire 1 % out_3_OBUF_133[0] $end
$var wire 1 & clk_BUFGP[0] $end
$var wire 1 ( \cntr_inst/cntr_141[0] $end
$var wire 1 - out_2_OBUF_94[0] $end
$var wire 1 0 rst_IBUF_76[0] $end
$var wire 1 1 enable[0] $end
$var wire 1 3 out_0_OBUF_99[0] $end
$var wire 1 4 enable_IBUF_0[0] $end
$var wire 1 = out_6_OBUF_122[0] $end
$var wire 1 ? out_5_OBUF_0[0] $end
$var wire 1 @ CONST_ONE[0] $end
$var wire 1 C out_4_OBUF_143[0] $end
$var wire 1 G out_1_OBUF_128[0] $end
$var wire 1 5 \NlwBufferSignal_out_3_OBUF/I[0] $end
$var wire 1 6 \NlwBufferSignal_out_7_OBUF/I[0] $end
$var wire 1 7 \NlwBufferSignal_out_0_OBUF/I[0] $end
$var wire 1 8 \NlwBufferSignal_out_4_OBUF/I[0] $end
$var wire 1 9 \NlwBufferSignal_out_6_OBUF/I[0] $end
$var wire 1 M \NLW_N0_6.B5LUT_O_UNCONNECTED[0] $end
$var wire 1 ; clk[0] $end
$var wire 1 E VCC[0] $end
$var wire 1 H GND[0] $end
$var wire 1 K enable_IBUF_61[0] $end
$var wire 1 L rst_IBUF_0[0] $end
$var wire 1 O \gray_inst/count[7] $end
$var wire 1 P \gray_inst/count[6] $end
$var wire 1 Q \gray_inst/count[5] $end
$var wire 1 R \gray_inst/count[4] $end
$var wire 1 S \gray_inst/count[3] $end
$var wire 1 T \gray_inst/count[2] $end
$var wire 1 U \gray_inst/count[1] $end
$var wire 1 V \gray_inst/count[0] $end
$var wire 1 W \gray_inst/Result[7] $end
$var wire 1 X \gray_inst/Result[6] $end
$var wire 1 Y \gray_inst/Result[5] $end
$var wire 1 Z \gray_inst/Result[4] $end
$var wire 1 [ \gray_inst/Result[3] $end
$var wire 1 \ \gray_inst/Result[2] $end
$var wire 1 ] \gray_inst/Result[1] $end
$var wire 1 _ \gray_inst/count<6>_rt_41[0] $end
$var wire 1 i \cntr_inst/cntr_INV_1_o[0] $end
$var wire 1 j \gray_inst/count<5>_rt_45[0] $end
$var wire 1 o \NLW_N1.A5LUT_O_UNCONNECTED[0] $end
$var wire 1 p \NLW_N0_2.B5LUT_O_UNCONNECTED[0] $end
$var wire 1 s \gray_inst/count<7>_rt_31[0] $end
$var wire 1 t \NlwBufferSignal_q_OBUF/I[0] $end
$var wire 1 v \gray_inst/count<4>_rt_49[0] $end
$var wire 1 a out[7] $end
$var wire 1 b out[6] $end
$var wire 1 c out[5] $end
$var wire 1 d out[4] $end
$var wire 1 e out[3] $end
$var wire 1 f out[2] $end
$var wire 1 ^ \gray_inst/Result[0] $end
$var wire 1 k \clk_BUFGP/IBUFG_58[0] $end
$var wire 1 n out_5_OBUF_88[0] $end
$var wire 1 r \clk_BUFGP/IBUFG_0[0] $end
$var wire 1 u out_0_OBUF_0[0] $end
$var wire 1 x out_2_OBUF_0[0] $end
$var wire 1 g out[1] $end
$var wire 1 h out[0] $end
$var wire 1 l rst[0] $end
$var wire 1 y q[0] $end
$var wire 1 w \NLW_N0_4.D5LUT_O_UNCONNECTED[0] $end
$var wire 1 z \NlwBufferSignal_cntr_inst/cntr/CLK[0] $end
$var wire 1 { \gray_inst/count<3>_rt_2[0] $end
$var wire 1 ~ \NlwBufferSignal_clk_BUFGP/BUFG/IN[0] $end
$var wire 1  \gray_inst/Mcount_count_cy[3] $end
$var wire 1 | CONST_ZERO[0] $end

$upscope $end
$enddefinitions $end
#-1
x!
x"
x#
x$
x%
x&
x'
x)
x*
x+
x,
x-
x.
x0
x1
x2
x3
x4
x5
x6
x7
x9
x:
x;
x;
x;
x;
x;
x;
x;
x;
x;
x;
x<
x=
x>
x?
x@
xA
xC
xD
xE
xF
xG
xH
xJ
xK
xL
xN
xO
xQ
xS
xU
xV
xW
xX
xY
x[
x\
x]
x^
x_
x`
xa
xb
xc
xd
xe
xg
xh
xi
xk
xl
xm
xn
xp
xq
xr
xt
xu
xv
xx
xy
xz
x|
x}
x~
#0
x!
1&
x*
z0
12
04
x8
0;
x<
1?
xA
1E
0H
xI
0K
xL
xM
xN
0P
xR
0T
xZ
0c
xf
xj
0k
zl
xm
xo
xq
xr
xs
0t
xw
xy
xz
x{
x}
1~
x
#1
z0
12
04
zL
1c
0k
0r
x~
#2
x2
zL
1c
0r
0y
#3
xc
0~
#4
0~
#5
1!
0&
1*
x0
x4
1;
1<
1A
1N
1k
1l
1m
1z
#6
1!
0&
1*
x0
1<
1A
xL
1N
1k
1m
1q
1r
1z
1}
#7
0!
0*
0<
0A
xL
0N
0m
0q
1r
0z
0}
1~
#8
0!
1&
0*
0<
0A
0N
0m
0q
0z
0}
1~
#9
1!
1&
1*
1<
1A
1N
1m
1q
1z
1}
#10
1!
1*
1<
1A
1N
1m
1q
1z
1}
#15
1;
#20
10
0;
0k
#21
1L
0k
0r
#22
0r
#23
0~
#24
0&
0~
#25
0&
#26
0!
0*
0<
0A
0N
0m
0q
0z
0}
#27
0!
0*
0<
0A
0N
0m
0q
0z
0}
#30
0;
#35
1;
1k
#36
1k
1r
#37
1r
1~
#38
1&
1~
#39
1!
1&
1*
1<
1A
1N
1m
1q
1z
1}
#40
1!
1*
1<
1A
1N
1m
1q
1z
1}
#45
1;
#50
0;
0k
#51
0k
0r
#52
0r
#53
0~
#54
0~
#55
0&
#56
0!
0&
0*
0<
0A
0N
0m
0q
0z
0}
#57
0!
0*
0<
0A
0N
0m
0q
0z
0}
#60
0;
#65
1;
1k
#66
1k
1r
#67
1r
#68
1~
#69
1~
#70
1&
#71
1&
1z
#72
1!
1*
1<
1A
1N
1m
1q
1z
1}
#73
1!
1*
1<
1A
1N
1m
1q
1}
#75
1;
#80
0;
0k
#81
0k
0r
#82
0r
#83
0~
#84
0~
#85
0&
#86
0&
0z
#87
0!
0*
0<
0A
0N
0m
0q
0z
0}
#88
0!
0*
0<
0A
0N
0m
0q
0}
#90
0;
#95
1;
1k
#96
1k
1r
#97
1r
1~
#98
1&
1~
#99
1&
#100
1!
1*
1<
1A
1N
1m
1q
1z
1}
#101
1!
1*
1<
1A
1N
1m
1q
1z
1}
#105
1;
xk
#106
xk
xr
#107
xr
#108
x~
#109
x~
#110
x&
#111
x&
#112
x!
x*
x<
xA
xN
xm
xq
xz
x}
#113
x!
x*
x<
xA
xN
xm
xq
xz
x}
#120
0;
0k
#121
0k
0r
#122
0r
0~
#123
0~
#124
0&
#125
0&
1;
1k
#126
0!
0*
0<
0A
0N
1k
0m
0q
1r
0z
0}
#127
0!
0*
0<
0A
0N
0m
0q
1r
0z
0}
#128
1~
#129
1&
1~
#130
1&
#131
1!
1*
1<
1A
1N
1m
1q
1z
1}
#132
1!
1*
1<
1A
1N
1m
1q
1z
1}
#135
1;
#140
0;
0k
#141
0k
0r
#142
0r
0~
#143
0~
#144
0&
#145
0!
0&
0*
0<
0A
0N
0m
0q
0z
0}
#146
0!
0*
0<
0A
0N
0m
0q
0z
0}
#150
0;
#155
1;
1k
#156
1k
1r
#157
1r
#158
1~
#159
1~
#160
1&
#161
1&
1m
1z
#162
1!
1*
1<
1A
1N
1m
1q
1z
1}
#163
1!
1*
1<
1A
1N
1q
1}
#165
1;
#170
0;
0k
#171
0k
0r
#172
0r
0~
#173
0~
#174
0&
#175
0&
#176
0!
0*
0<
0A
0N
0m
0q
0z
0}
#177
0!
0*
0<
0A
0N
0m
0q
0z
0}
#180
0;
#185
1;
1k
#186
1k
1r
#187
1r
#188
1~
#189
1~
#190
1&
#191
1!
1&
1*
1<
1A
1N
1m
1q
1z
1}
#192
1!
1*
1<
1A
1N
1m
1q
1z
1}
#195
1;
#200
0;
0k
#201
0k
0r
#202
0r
#203
0~
#204
0~
#205
0&
#206
0&
#207
0!
0*
0<
0A
0N
0m
0q
0z
0}
#208
0!
0*
0<
0A
0N
0m
0q
0z
0}
#210
0;
#215
1;
1k
#216
1k
1r
#217
1r
1~
#218
1&
1~
#219
1!
1&
1*
1<
1A
1N
1m
1q
1z
1}
#220
1!
1*
1<
1A
1N
1m
1q
1z
1}
#225
1;
xk
#226
xk
xr
#227
xr
x~
#228
x&
x~
#229
x!
x&
x*
x<
xA
xN
xm
xq
xz
x}
#230
x!
x*
x<
xA
xN
xm
xq
xz
x}
#240
0;
0k
#241
0k
0r
#242
0r
#243
0~
#244
0~
#245
0&
1;
1k
#246
0&
1k
1r
#247
0!
0*
0<
0A
0N
0m
0q
1r
0z
0}
#248
0!
0*
0<
0A
0N
0m
0q
0z
0}
1~
#249
1~
#250
1&
#251
1&
#252
1!
1*
1<
1A
1N
1m
1q
1z
1}
#253
1!
1*
1<
1A
1N
1m
1q
1z
1}
#255
1;
#260
0;
0k
#261
0k
0r
#262
0r
0~
#263
0~
#264
0&
#265
0&
0z
#266
0!
0*
0<
0A
0N
0m
0q
0z
0}
#267
0!
0*
0<
0A
0N
0m
0q
0}
#270
0;
#275
1;
1k
#276
1k
1r
#277
1r
1~
#278
1~
#279
1&
#280
1!
1&
1*
1<
1A
1N
1m
1q
1z
1}
#281
1!
1*
1<
1A
1N
1m
1q
1z
1}
#285
1;
#290
0;
0k
#291
0k
0r
#292
0r
0~
#293
0~
#294
0&
#295
0!
0&
0*
0<
0A
0N
0m
0q
0z
0}
#296
0!
0*
0<
0A
0N
0m
0q
0z
0}
#300
0;
#305
1;
1k
#306
1k
1r
#307
1r
#308
1~
#309
1~
#310
1&
#311
1&
#312
1!
1*
1<
1A
1N
1m
1q
1z
1}
#313
1!
1*
1<
1A
1N
1m
1q
1z
1}
#315
1;
#320
0;
0k
#321
0k
0r
#322
0r
0~
#323
0~
#324
0&
#325
0&
#326
0!
0*
0<
0A
0N
0m
0q
0z
0}
#327
0!
0*
0<
0A
0N
0m
0q
0z
0}
#330
0;
#335
1;
1k
#336
1k
1r
#337
1r
#338
1~
#339
1~
#340
1&
#341
1&
#342
1!
1*
1<
1A
1N
1m
1q
1z
1}
#343
1!
1*
1<
1A
1N
1m
1q
1z
1}
#345
1;
#350
0;
0k
#351
0k
0r
#352
0r
0~
#353
0~
#354
0&
#355
0!
0&
0*
0<
0A
0N
0m
0q
0z
0}
#356
0!
0*
0<
0A
0N
0m
0q
0z
0}
#360
0;
#365
1;
1k
#366
1k
1r
#367
1r
#368
1~
#369
1~
#370
1&
#371
1!
1&
1*
1<
1A
1N
1m
1q
1z
1}
#372
1!
1*
1<
1A
1N
1m
1q
1z
1}
#375
1;
#380
0;
0k
#381
0k
0r
#382
0r
0~
#383
0~
#384
0&
#385
0!
0&
0*
0<
0A
0N
0m
0q
0z
0}
#386
0!
0*
0<
0A
0N
0m
0q
0z
0}
#390
0;
#395
1;
1k
#396
1k
1r
#397
1r
1~
#398
1~
#399
1&
#400
1&
#401
1!
1*
1<
1A
1N
1m
1q
1z
1}
#402
1!
1*
1<
1A
1N
1m
1q
1z
1}
#405
1;
#410
0;
0k
#411
0k
0r
#412
0r
0~
#413
0~
#414
0&
#415
0!
0&
0*
0<
0A
0N
0m
0q
0z
0}
#416
0!
0*
0<
0A
0N
0m
0q
0z
0}
#420
0;
#425
1;
1k
#426
1k
1r
#427
1r
1~
#428
1~
#429
1&
#430
1!
1&
1*
1<
1A
1N
1m
1q
1z
1}
#431
1!
1*
1<
1A
1N
1m
1q
1z
1}
#435
1;
#440
0;
0k
#441
0k
0r
#442
0r
0~
#443
0&
0~
#444
0&
#445
0!
0*
0<
0A
0N
0m
0q
0z
0}
#446
0!
0*
0<
0A
0N
0m
0q
0z
0}
#450
0;
#455
1;
1k
#456
1k
1r
#457
1r
#458
1~
#459
1~
#460
1&
#461
1&
#462
1!
1*
1<
1A
1N
1m
1q
1z
1}
#463
1!
1*
1<
1A
1N
1m
1q
1z
1}
#465
1;
xk
#466
xk
xr
#467
xr
x~
#468
x~
#469
x&
#470
x!
x&
x*
x<
xA
xN
xm
xq
xz
x}
#471
x!
x*
x<
xA
xN
xm
xq
xz
x}
#480
0;
0k
#481
0k
0r
#482
0r
0~
#483
0&
0~
#484
0&
0z
#485
0!
0*
1;
0<
0A
0N
1k
0m
0q
0z
0}
#486
0!
0*
0<
0A
0N
1k
0m
0q
1r
0}
#487
1r
#488
1~
#489
1&
1~
#490
1!
1&
1*
1<
1A
1N
1m
1q
1z
1}
#491
1!
1*
1<
1A
1N
1m
1q
1z
1}
#495
1;
#500
0;
0k
#501
0k
0r
#502
0r
#503
0~
#504
0~
#505
0&
#506
0!
0&
0*
0<
0A
0N
0m
0q
0z
0}
#507
0!
0*
0<
0A
0N
0m
0q
0z
0}
#510
0;
#515
1;
1k
#516
1k
1r
#517
1r
1~
#518
1&
1~
#519
1&
#520
1!
1*
1<
1A
1N
1m
1q
1z
1}
#521
1!
1*
1<
1A
1N
1m
1q
1z
1}
#525
1;
#530
0;
0k
#531
0k
0r
#532
0r
0~
#533
0&
0~
#534
0&
#535
0!
0*
0<
0A
0N
0m
0q
0z
0}
#536
0!
0*
0<
0A
0N
0m
0q
0z
0}
#540
0;
#545
1;
1k
#546
1k
1r
#547
1r
1~
#548
1~
#549
1&
#550
1!
1&
1*
1<
1A
1N
1m
1q
1z
1}
#551
1!
1*
1<
1A
1N
1m
1q
1z
1}
#555
1;
#560
0;
0k
#561
0k
0r
#562
0r
#563
0~
#564
0&
0~
#565
0&
0z
#566
0!
0*
0<
0A
0N
0m
0q
0z
0}
#567
0!
0*
0<
0A
0N
0m
0q
0}
#570
0;
#575
1;
1k
#576
1k
1r
#577
1r
1~
#578
1~
#579
1&
#580
1!
1&
1*
1<
1A
1N
1m
1q
1z
#581
1!
1*
1<
1A
1N
1m
1q
1z
1}
#582
1}
#585
1;
#590
0;
0k
#591
0k
0r
#592
0r
0~
#593
0&
0~
#594
0&
0z
#595
0!
0*
0<
0A
0N
0m
0q
0z
0}
#596
0!
0*
0<
0A
0N
0m
0q
0}
#600
0;
#605
1;
1k
#606
1k
1r
#607
1r
1~
#608
1~
#609
1&
#610
1&
1z
#611
1!
1*
1<
1A
1N
1m
1q
1z
1}
#612
1!
1*
1<
1A
1N
1m
1q
1}
#615
1;
#620
0;
0k
#621
0k
0r
#622
0r
0~
#623
0~
#624
0&
#625
0&
#626
0!
0*
0<
0A
0N
0m
0q
0z
0}
#627
0!
0*
0<
0A
0N
0m
0q
0z
0}
#630
0;
#635
1;
1k
#636
1k
1r
#637
1r
#638
1~
#639
1~
#640
1&
#641
1!
1&
1*
1<
1A
1N
1m
1q
1z
1}
#642
1!
1*
1<
1A
1N
1m
1q
1z
1}
#645
1;
#650
0;
0k
#651
0k
0r
#652
0r
#653
0~
#654
0~
#655
0&
#656
0&
#657
0!
0*
0<
0A
0N
0m
0q
0z
0}
#658
0!
0*
0<
0A
0N
0m
0q
0z
0}
#660
0;
#665
1;
1k
#666
1k
1r
#667
1r
1~
#668
1~
#669
1&
#670
1!
1&
1*
1<
1A
1N
1m
1q
1z
1}
#671
1!
1*
1<
1A
1N
1m
1q
1z
1}
#675
1;
#680
0;
0k
#681
0k
0r
#682
0r
#683
0~
#684
0&
0~
#685
0&
#686
0!
0*
0<
0A
0N
0m
0q
0z
0}
#687
0!
0*
0<
0A
0N
0m
0q
0z
0}
#690
0;
#695
1;
1k
#696
1k
1r
#697
1r
#698
1~
#699
1~
#700
1&
#701
1&
#702
1!
1*
1<
1A
1N
1m
1q
1z
1}
#703
1!
1*
1<
1A
1N
1m
1q
1z
1}
#705
1;
#710
0;
0k
#711
0k
0r
#712
0r
#713
0~
#714
0~
#715
0&
#716
0&
#717
0!
0*
0<
0A
0N
0m
0q
0z
0}
#718
0!
0*
0<
0A
0N
0m
0q
0z
0}
#720
0;
#725
1;
1k
#726
1k
1r
#727
1r
1~
#728
1~
#729
1&
#730
1!
1&
1*
1<
1A
1N
1m
1q
1z
1}
#731
1!
1*
1<
1A
1N
1m
1q
1z
1}
#735
1;
#740
0;
0k
#741
0k
0r
#742
0r
0~
#743
0~
#744
0&
#745
0&
0z
#746
0!
0*
0<
0A
0N
0m
0q
0z
0}
#747
0!
0*
0<
0A
0N
0m
0q
0}
#750
0;
#755
1;
1k
#756
1k
1r
#757
1r
#758
1~
#759
1~
#760
1&
#761
1!
1&
1*
1<
1A
1N
1m
1q
1z
1}
#762
1!
1*
1<
1A
1N
1m
1q
1z
1}
#765
1;
#770
0;
0k
#771
0k
0r
#772
0r
0~
#773
0&
0~
#774
0&
#775
0!
0*
0<
0A
0N
0m
0q
0z
0}
#776
0!
0*
0<
0A
0N
0m
0q
0z
0}
#780
0;
#785
1;
1k
#786
1k
1r
#787
1r
1~
#788
1&
1~
#789
1&
#790
1!
1*
1<
1A
1N
1m
1q
1z
1}
#791
1!
1*
1<
1A
1N
1m
1q
1z
1}
#795
1;
#800
0;
0k
#801
0k
0r
#802
0r
#803
0~
#804
0~
#805
0&
#806
0&
0<
0A
0N
0m
0z
#807
0!
0*
0<
0A
0N
0m
0q
0z
0}
#808
0!
0*
0q
0}
#810
0;
#815
1;
1k
#816
1k
1r
#817
1r
#818
1~
#819
1~
#820
1&
#821
1&
#822
1!
1*
1<
1A
1N
1m
1q
1z
1}
#823
1!
1*
1<
1A
1N
1m
1q
1z
1}
#825
1;
#830
0;
0k
#831
0k
0r
#832
0r
0~
#833
0&
0~
#834
0!
0&
0*
0<
0A
0N
0m
0q
0z
0}
#835
0!
0*
0<
0A
0N
0m
0q
0z
0}
#840
0;
#845
1;
1k
#846
1k
1r
#847
1r
#848
1~
#849
1~
#850
1&
#851
1&
#852
1!
1*
1<
1A
1N
1m
1q
1z
1}
#853
1!
1*
1<
1A
1N
1m
1q
1z
1}
#855
1;
#860
0;
0k
#861
0k
0r
#862
0r
#863
0~
#864
0~
#865
0&
#866
0&
0<
0A
0N
0m
0z
#867
0!
0*
0<
0A
0N
0m
0q
0z
0}
#868
0!
0*
0q
0}
#870
0;
#875
1;
1k
#876
1k
1r
#877
1r
1~
#878
1~
#879
1&
#880
1&
#881
1!
1*
1<
1A
1N
1m
1q
1z
1}
#882
1!
1*
1<
1A
1N
1m
1q
1z
1}
#885
1;
#890
0;
0k
#891
0k
0r
#892
0r
#893
0~
#894
0&
0~
#895
0!
0&
0*
0<
0A
0N
0m
0q
0z
0}
#896
0!
0*
0<
0A
0N
0m
0q
0z
0}
#900
0;
#905
1;
1k
#906
1k
1r
#907
1r
#908
1~
#909
1~
#910
1&
#911
1!
1&
1<
1A
1N
1m
1z
#912
1!
1*
1<
1A
1N
1m
1q
1z
1}
#913
1*
1q
1}
#915
1;
#920
0;
0k
#921
0k
0r
#922
0r
#923
0~
#924
0&
0~
#925
0!
0&
0*
0<
0A
0N
0m
0q
0z
0}
#926
0!
0*
0<
0A
0N
0m
0q
0z
0}
#930
0;
#935
1;
1k
#936
1k
1r
#937
1r
1~
#938
1~
#939
1&
#940
1&
1z
#941
1!
1*
1<
1A
1N
1m
1q
1z
1}
#942
1!
1*
1<
1A
1N
1m
1q
1}
#945
1;
xk
#946
xk
xr
#947
xr
x~
#948
x~
#949
x&
#950
x!
x&
x*
x<
xA
xN
xm
xq
xz
x}
#951
x!
x*
x<
xA
xN
xm
xq
xz
x}
#960
0;
0k
#961
0k
0r
#962
0r
#963
0~
#964
0&
0~
#965
0&
1;
1k
#966
0!
0*
0<
0A
0N
1k
0m
0q
1r
0z
0}
#967
0!
0*
0<
0A
0N
0m
0q
1r
0z
0}
#968
1~
#969
1~
#970
1&
#971
1&
1z
#972
1!
1*
1<
1A
1N
1m
1q
1z
1}
#973
1!
1*
1<
1A
1N
1m
1q
1}
#975
1;
#980
0;
0k
#981
0k
0r
#982
0r
0~
#983
0~
#984
0&
#985
0&
0z
#986
0!
0*
0<
0A
0N
0m
0q
0z
0}
#987
0!
0*
0<
0A
0N
0m
0q
0}
#990
0;
#995
1;
1k
#996
1k
1r
#997
1r
#998
1~
#999
1~
#1000
1&
#1001
1&
1z
#1002
1!
1*
1<
1A
1N
1m
1q
1z
1}
#1003
1!
1*
1<
1A
1N
1m
1q
1}
#1005
1;
#1010
0;
0k
#1011
0k
0r
#1012
0r
0~
#1013
0~
#1014
0&
#1015
0!
0&
0*
0<
0A
0N
0m
0z
#1016
0!
0*
0<
0A
0N
0m
0q
0z
0}
#1017
0q
0}
#1020
0;
#1025
1;
1k
#1026
1k
1r
#1027
1r
#1028
1~
#1029
1~
#1030
1&
#1031
1&
#1032
1!
1*
1<
1A
1N
1m
1q
1z
1}
#1033
1!
1*
1<
1A
1N
1m
1q
1z
1}
#1035
1;
#1040
0;
0k
#1041
0k
0r
#1042
0r
0~
#1043
0~
#1044
0&
#1045
0&
#1046
0!
0*
0<
0A
0N
0m
0q
0z
0}
#1047
0!
0*
0<
0A
0N
0m
0q
0z
0}
#1050
0;
#1055
1;
1k
#1056
1k
1r
#1057
1r
#1058
1~
#1059
1&
1~
#1060
1!
1&
1*
1<
1A
1N
1m
1q
1z
1}
#1061
1!
1*
1<
1A
1N
1m
1q
1z
1}
#1065
1;
#1070
0;
0k
#1071
0k
0r
#1072
0r
#1073
0~
#1074
0~
#1075
0&
#1076
0&
#1077
0!
0*
0<
0A
0N
0m
0q
0z
0}
#1078
0!
0*
0<
0A
0N
0m
0q
0z
0}
#1080
0;
#1085
1;
1k
#1086
1k
1r
#1087
1r
#1088
1~
#1089
1~
#1090
1&
#1091
1!
1&
1*
1<
1A
1N
1m
1q
1z
1}
#1092
1!
1*
1<
1A
1N
1m
1q
1z
1}
#1095
1;
#1100
0;
0k
#1101
0k
0r
#1102
0r
0~
#1103
0~
#1104
0&
#1105
0!
0&
0*
0<
0A
0N
0m
0q
0z
0}
#1106
0!
0*
0<
0A
0N
0m
0q
0z
0}
#1110
0;
#1115
1;
1k
#1116
1k
1r
#1117
1r
1~
#1118
1&
1~
#1119
1!
1&
1*
1<
1A
1N
1m
1q
1z
1}
#1120
1!
1*
1<
1A
1N
1m
1q
1z
1}
#1125
1;
#1130
0;
0k
#1131
0k
0r
#1132
0r
0~
#1133
0&
0~
#1134
0!
0&
0*
0<
0A
0N
0m
0q
0z
0}
#1135
0!
0*
0<
0A
0N
0m
0q
0z
0}
#1140
0;
#1145
1;
1k
#1146
1k
1r
#1147
1r
1~
#1148
1&
1~
#1149
1!
1&
1*
1<
1A
1N
1m
1q
1z
1}
#1150
1!
1*
1<
1A
1N
1m
1q
1z
1}
#1155
1;
#1160
0;
0k
#1161
0k
0r
#1162
0r
0~
#1163
0&
0~
#1164
0&
0z
#1165
0!
0*
0<
0A
0N
0m
0q
0z
0}
#1166
0!
0*
0<
0A
0N
0m
0q
0}
#1170
0;
#1175
1;
1k
#1176
1k
1r
#1177
1r
#1178
1~
#1179
1~
#1180
1&
#1181
1&
#1182
1!
1*
1<
1A
1N
1m
1q
1z
1}
#1183
1!
1*
1<
1A
1N
1m
1q
1z
1}
#1185
1;
#1190
0;
0k
#1191
0k
0r
#1192
0r
#1193
0~
#1194
0&
0~
#1195
0&
#1196
0!
0*
0<
0A
0N
0m
0q
0z
0}
#1197
0!
0*
0<
0A
0N
0m
0q
0z
0}
#1200
0;
#1205
1;
1k
#1206
1k
1r
#1207
1r
1~
#1208
1&
1~
#1209
1&
#1210
1!
1*
1<
1A
1N
1m
1q
1z
1}
#1211
1!
1*
1<
1A
1N
1m
1q
1z
1}
#1215
1;
#1220
0;
0k
#1221
0k
0r
#1222
0r
0~
#1223
0&
0~
#1224
0!
0&
0*
0<
0A
0N
0m
0q
0z
0}
#1225
0!
0*
0<
0A
0N
0m
0q
0z
0}
#1230
0;
#1235
1;
1k
#1236
1k
1r
#1237
1r
#1238
1~
#1239
1~
#1240
1&
#1241
1!
1&
1*
1<
1A
1N
1m
1q
1z
1}
#1242
1!
1*
1<
1A
1N
1m
1q
1z
1}
#1245
1;
#1250
0;
0k
#1251
0k
0r
#1252
0r
0~
#1253
0~
#1254
0&
#1255
0&
#1256
0!
0*
0<
0A
0N
0m
0q
0z
0}
#1257
0!
0*
0<
0A
0N
0m
0q
0z
0}
#1260
0;
#1265
1;
1k
#1266
1k
1r
#1267
1r
1~
#1268
1&
1~
#1269
1!
1&
1*
1<
1A
1N
1m
1q
1z
1}
#1270
1!
1*
1<
1A
1N
1m
1q
1z
1}
#1275
1;
#1280
0;
0k
#1281
0k
0r
#1282
0r
0~
#1283
0~
#1284
0&
#1285
0&
#1286
0!
0*
0<
0A
0N
0m
0q
0z
0}
#1287
0!
0*
0<
0A
0N
0m
0q
0z
0}
#1290
0;
#1295
1;
1k
#1296
1k
1r
#1297
1r
#1298
1~
#1299
1&
1~
#1300
1&
#1301
1!
1*
1<
1A
1N
1m
1q
1z
1}
#1302
1!
1*
1<
1A
1N
1m
1q
1z
1}
#1305
1;
#1310
0;
0k
#1311
0k
0r
#1312
0r
#1313
0~
#1314
0&
0~
#1315
0!
0&
0*
0<
0A
0N
0m
0q
0z
0}
#1316
0!
0*
0<
0A
0N
0m
0q
0z
0}
#1320
0;
#1325
1;
1k
#1326
1k
1r
#1327
1r
#1328
1~
#1329
1&
1~
#1330
1!
1&
1*
1<
1A
1N
1m
1q
1z
1}
#1331
1!
1*
1<
1A
1N
1m
1q
1z
1}
#1335
1;
#1340
0;
0k
#1341
0k
0r
#1342
0r
#1343
0~
#1344
0~
#1345
0&
#1346
0!
0&
0*
0<
0A
0N
0m
0q
0z
0}
#1347
0!
0*
0<
0A
0N
0m
0q
0z
0}
#1350
0;
#1355
1;
1k
#1356
1k
1r
#1357
1r
1~
#1358
1~
#1359
1&
#1360
1&
#1361
1!
1*
1<
1A
1N
1m
1q
1z
1}
#1362
1!
1*
1<
1A
1N
1m
1q
1z
1}
#1365
1;
#1370
0;
0k
#1371
0k
0r
#1372
0r
#1373
0~
#1374
0~
#1375
0&
#1376
0&
#1377
0!
0*
0<
0A
0N
0m
0q
0z
0}
#1378
0!
0*
0<
0A
0N
0m
0q
0z
0}
#1380
0;
#1385
1;
1k
#1386
1k
1r
#1387
1r
1~
#1388
1&
1~
#1389
1!
1&
1*
1<
1A
1N
1m
1q
1z
1}
#1390
1!
1*
1<
1A
1N
1m
1q
1z
1}
#1395
1;
#1400
0;
0k
#1401
0k
0r
#1402
0r
0~
#1403
0&
0~
#1404
0&
#1405
0!
0*
0<
0A
0N
0m
0q
0z
0}
#1406
0!
0*
0<
0A
0N
0m
0q
0z
0}
#1410
0;
#1415
1;
1k
#1416
1k
1r
#1417
1r
#1418
1~
#1419
1~
#1420
1&
#1421
1!
1&
1*
1<
1A
1N
1m
1q
1z
1}
#1422
1!
1*
1<
1A
1N
1m
1q
1z
1}
#1425
1;
#1430
0;
0k
#1431
0k
0r
#1432
0r
#1433
0~
#1434
0&
0~
#1435
0&
0z
#1436
0!
0*
0<
0A
0N
0m
0q
0z
0}
#1437
0!
0*
0<
0A
0N
0m
0q
0}
#1440
0;
#1445
1;
1k
#1446
1k
1r
#1447
1r
#1448
1~
#1449
1~
#1450
1&
#1451
1&
#1452
1!
1*
1<
1A
1N
1m
1q
1z
1}
#1453
1!
1*
1<
1A
1N
1m
1q
1z
1}
#1455
1;
#1460
0;
0k
#1461
0k
0r
#1462
0r
0~
#1463
0&
0~
#1464
0!
0&
0*
0<
0A
0N
0m
0q
0z
0}
#1465
0!
0*
0<
0A
0N
0m
0q
0z
0}
#1470
0;
#1475
1;
1k
#1476
1k
1r
#1477
1r
1~
#1478
1~
#1479
1&
#1480
1!
1&
1*
1<
1A
1N
1m
1q
1z
1}
#1481
1!
1*
1<
1A
1N
1m
1q
1z
1}
#1485
1;
