cppsimulator/cppsimulator/parsimony.vcd
$date
<date_and_time_specification>
$end
$version
ParSimony
$end
$timescale
1 ns
$end

$scope module top $end
$var wire 1 : NET_INDEX__BNLW__GRAY__INST_SMCOUNT__COUNT__XOR_L7_G__CO_A1_B__UNCONNECTED_A0_B $end
$var wire 1 > NET_INDEX__BNLW__GRAY__INST_SMCOUNT__COUNT__XOR_L7_G__CO_A0_B__UNCONNECTED_A0_B $end
$var wire 1 B NET_INDEX__BNLW__GRAY__INST_SMCOUNT__COUNT__XOR_L7_G__DI_A3_B__UNCONNECTED_A0_B $end
$var wire 1 D NET_INDEX__BNLW__GRAY__INST_SMCOUNT__COUNT__CY_L3_G__CO_A1_B__UNCONNECTED_A0_B $end
$var wire 1 F NET_INDEX__BNLW__GRAY__INST_SMCOUNT__COUNT__CY_L3_G__CO_A0_B__UNCONNECTED_A0_B $end
$var wire 1 I NET_INDEX__BNLW__GRAY__INST_SMCOUNT__COUNT__XOR_L7_G__CO_A2_B__UNCONNECTED_A0_B $end
$var wire 1 J NET_INDEX__BNLW__GRAY__INST_SMCOUNT__COUNT__XOR_L7_G__CO_A3_B__UNCONNECTED_A0_B $end
$var wire 1 ` NET_INDEX__BNLW__GRAY__INST_SMCOUNT__COUNT__CY_L3_G__CO_A2_B__UNCONNECTED_A0_B $end
$var wire 1 & NET_INDEX_CLK__BUFGP_A0_B $end
$var wire 1 1 NET_INDEX_ENABLE_A0_B $end
$var wire 1 @ NET_INDEX_CONST__ONE_A0_B $end
$var wire 1 L NET_INDEX_RST__IBUF__0_A0_B $end
$var wire 1 | NET_INDEX_CONST__ZERO_A0_B $end
$var wire 1 ! NET_INDEX__BNLWBUFFERSIGNAL__GRAY__INST_SCOUNT__0_SCLK_A0_B $end
$var wire 1 " NET_INDEX__BGRAY__INST_SCOUNT_L1_G__RT__18_A0_B $end
$var wire 1 # NET_INDEX__BNLW__N0_DC5LUT__O__UNCONNECTED_A0_B $end
$var wire 1 $ NET_INDEX__BGRAY__INST_SCOUNT_L2_G__RT__14_A0_B $end
$var wire 1 % NET_INDEX_OUT__3__OBUF__133_A0_B $end
$var wire 1 - NET_INDEX_OUT__2__OBUF__94_A0_B $end
$var wire 1 0 NET_INDEX_RST__IBUF__76_A0_B $end
$var wire 1 3 NET_INDEX_OUT__0__OBUF__99_A0_B $end
$var wire 1 4 NET_INDEX_ENABLE__IBUF__0_A0_B $end
$var wire 1 = NET_INDEX_OUT__6__OBUF__122_A0_B $end
$var wire 1 ? NET_INDEX_OUT__5__OBUF__0_A0_B $end
$var wire 1 C NET_INDEX_OUT__4__OBUF__143_A0_B $end
$var wire 1 G NET_INDEX_OUT__1__OBUF__128_A0_B $end
$var wire 1 K NET_INDEX_ENABLE__IBUF__61_A0_B $end
$var wire 1 O NET_INDEX__BGRAY__INST_SCOUNT_A0_B $end
$var wire 1 P NET_INDEX__BGRAY__INST_SCOUNT_A1_B $end
$var wire 1 Q NET_INDEX__BGRAY__INST_SCOUNT_A2_B $end
$var wire 1 R NET_INDEX__BGRAY__INST_SCOUNT_A3_B $end
$var wire 1 S NET_INDEX__BGRAY__INST_SCOUNT_A4_B $end
$var wire 1 T NET_INDEX__BGRAY__INST_SCOUNT_A5_B $end
$var wire 1 U NET_INDEX__BGRAY__INST_SCOUNT_A6_B $end
$var wire 1 V NET_INDEX__BGRAY__INST_SCOUNT_A7_B $end
$var wire 1 W NET_INDEX__BGRAY__INST_SRESULT_A0_B $end
$var wire 1 X NET_INDEX__BGRAY__INST_SRESULT_A1_B $end
$var wire 1 Y NET_INDEX__BGRAY__INST_SRESULT_A2_B $end
$var wire 1 Z NET_INDEX__BGRAY__INST_SRESULT_A3_B $end
$var wire 1 [ NET_INDEX__BGRAY__INST_SRESULT_A4_B $end
$var wire 1 \ NET_INDEX__BGRAY__INST_SRESULT_A5_B $end
$var wire 1 ] NET_INDEX__BGRAY__INST_SRESULT_A6_B $end
$var wire 1 ^ NET_INDEX__BGRAY__INST_SRESULT_A7_B $end
$var wire 1 n NET_INDEX_OUT__5__OBUF__88_A0_B $end
$var wire 1 u NET_INDEX_OUT__0__OBUF__0_A0_B $end
$var wire 1 x NET_INDEX_OUT__2__OBUF__0_A0_B $end
$var wire 1 ' NET_INDEX__BGRAY__INST_SMCOUNT__COUNT__LUT_A0_B $end
$var wire 1 ( NET_INDEX__BCNTR__INST_SCNTR__141_A0_B $end
$var wire 1 ) NET_INDEX__BNLW__N0__5_DC5LUT__O__UNCONNECTED_A0_B $end
$var wire 1 2 NET_INDEX__BNLWBUFFERSIGNAL__OUT__5__OBUF_SI_A0_B $end
$var wire 1 * NET_INDEX__BNLWBUFFERSIGNAL__GRAY__INST_SCOUNT__1_SCLK_A0_B $end
$var wire 1 < NET_INDEX__BNLWBUFFERSIGNAL__GRAY__INST_SCOUNT__7_SCLK_A0_B $end
$var wire 1 A NET_INDEX__BNLWBUFFERSIGNAL__GRAY__INST_SCOUNT__6_SCLK_A0_B $end
$var wire 1 N NET_INDEX__BNLWBUFFERSIGNAL__GRAY__INST_SCOUNT__5_SCLK_A0_B $end
$var wire 1 + NET_INDEX__BNLWBUFFERSIGNAL__OUT__1__OBUF_SI_A0_B $end
$var wire 1 , NET_INDEX__BNLWBUFFERSIGNAL__OUT__2__OBUF_SI_A0_B $end
$var wire 1 . NET_INDEX__BNLW__N0__3_DA5LUT__O__UNCONNECTED_A0_B $end
$var wire 1 / NET_INDEX__BPROTOCOMP1_DCYINITGND_D0_A0_B $end
$var wire 1 M NET_INDEX__BNLW__N0__6_DB5LUT__O__UNCONNECTED_A0_B $end
$var wire 1 5 NET_INDEX__BNLWBUFFERSIGNAL__OUT__3__OBUF_SI_A0_B $end
$var wire 1 6 NET_INDEX__BNLWBUFFERSIGNAL__OUT__7__OBUF_SI_A0_B $end
$var wire 1 7 NET_INDEX__BNLWBUFFERSIGNAL__OUT__0__OBUF_SI_A0_B $end
$var wire 1 ; NET_INDEX_CLK_A0_B $end
$var wire 1 E NET_INDEX_VCC_A0_B $end
$var wire 1 H NET_INDEX_GND_A0_B $end
$var wire 1 8 NET_INDEX__BNLWBUFFERSIGNAL__OUT__4__OBUF_SI_A0_B $end
$var wire 1 9 NET_INDEX__BNLWBUFFERSIGNAL__OUT__6__OBUF_SI_A0_B $end
$var wire 1 k NET_INDEX__BCLK__BUFGP_SIBUFG__58_A0_B $end
$var wire 1 r NET_INDEX__BCLK__BUFGP_SIBUFG__0_A0_B $end
$var wire 1 m NET_INDEX__BNLWBUFFERSIGNAL__GRAY__INST_SCOUNT__4_SCLK_A0_B $end
$var wire 1 q NET_INDEX__BNLWBUFFERSIGNAL__GRAY__INST_SCOUNT__2_SCLK_A0_B $end
$var wire 1 _ NET_INDEX__BGRAY__INST_SCOUNT_L6_G__RT__41_A0_B $end
$var wire 1 a NET_INDEX_OUT_A0_B $end
$var wire 1 b NET_INDEX_OUT_A1_B $end
$var wire 1 c NET_INDEX_OUT_A2_B $end
$var wire 1 d NET_INDEX_OUT_A3_B $end
$var wire 1 e NET_INDEX_OUT_A4_B $end
$var wire 1 f NET_INDEX_OUT_A5_B $end
$var wire 1 g NET_INDEX_OUT_A6_B $end
$var wire 1 h NET_INDEX_OUT_A7_B $end
$var wire 1 l NET_INDEX_RST_A0_B $end
$var wire 1 i NET_INDEX__BCNTR__INST_SCNTR__INV__1__O_A0_B $end
$var wire 1 j NET_INDEX__BGRAY__INST_SCOUNT_L5_G__RT__45_A0_B $end
$var wire 1 o NET_INDEX__BNLW__N1_DA5LUT__O__UNCONNECTED_A0_B $end
$var wire 1 p NET_INDEX__BNLW__N0__2_DB5LUT__O__UNCONNECTED_A0_B $end
$var wire 1 s NET_INDEX__BGRAY__INST_SCOUNT_L7_G__RT__31_A0_B $end
$var wire 1 t NET_INDEX__BNLWBUFFERSIGNAL__Q__OBUF_SI_A0_B $end
$var wire 1 v NET_INDEX__BGRAY__INST_SCOUNT_L4_G__RT__49_A0_B $end
$var wire 1 w NET_INDEX__BNLW__N0__4_DD5LUT__O__UNCONNECTED_A0_B $end
$var wire 1 { NET_INDEX__BGRAY__INST_SCOUNT_L3_G__RT__2_A0_B $end
$var wire 1  NET_INDEX__BGRAY__INST_SMCOUNT__COUNT__CY_A3_B $end
$var wire 1 y NET_INDEX_Q_A0_B $end
$var wire 1 z NET_INDEX__BNLWBUFFERSIGNAL__CNTR__INST_SCNTR_SCLK_A0_B $end
$var wire 1 } NET_INDEX__BNLWBUFFERSIGNAL__GRAY__INST_SCOUNT__3_SCLK_A0_B $end
$var wire 1 ~ NET_INDEX__BNLWBUFFERSIGNAL__CLK__BUFGP_SBUFG_SIN_A0_B $end

$upscope $end
$enddefinitions $end
#0
0!
x"
0#
x$
x%
0&
x'
x(
0)
0*
x+
x,
x-
0.
0/
x0
x1
x2
x3
x4
x5
x6
x7
x8
x9
x:
0;
0<
x=
x>
x?
1@
0A
xB
xC
xD
1E
xF
xG
0H
xI
xJ
xK
xL
0M
0N
xO
xP
xQ
xR
xS
xT
xU
xV
xW
xX
xY
xZ
x[
x\
x]
x^
x_
x`
xa
xb
xc
xd
xe
xf
xg
xh
xi
xj
0k
xl
0m
xn
1o
0p
0q
0r
xs
xt
xu
xv
0w
xx
xy
0z
x{
0|
0}
0~
x
#5
1!
1&
1*
10
11
14
1;
1<
1A
1K
1L
1N
1k
1l
1m
1q
1r
1z
1}
1~
#10
0!
0&
0*
0;
0<
0A
0N
0k
0m
0q
0r
0z
0}
0~
#15
1!
0"
0$
0%
1&
1'
0(
1*
0+
0,
0-
02
03
05
06
07
08
09
0:
1;
1<
0=
0>
0?
1A
0C
0D
0F
0G
0I
1N
0O
0P
0Q
0R
0S
0T
0U
0V
1W
0X
0Y
0Z
0[
0\
0]
0^
0_
0`
0a
0b
0c
0d
0e
0f
0g
0h
1i
0j
1k
1m
0n
1q
1r
0s
0t
0u
0v
0x
0y
1z
0{
1}
1~
0
#20
0!
0&
0*
00
0;
0<
0A
0L
0N
0k
0l
0m
0q
0r
0z
0}
0~
#25
1!
1&
0'
1(
1*
13
17
1;
1<
1A
1F
1N
1O
0W
1X
1a
0i
1k
1m
1q
1r
1t
1u
1y
1z
1}
1~
#30
0!
0&
0*
0;
0<
0A
0N
0k
0m
0q
0r
0z
0}
0~
#35
1!
1"
1&
1'
0(
1*
1+
1;
1<
1A
0F
1G
1N
0O
1P
1W
1b
1i
1k
1m
1q
1r
0t
0y
1z
1}
1~
#40
0!
0&
0*
0;
0<
0A
0N
0k
0m
0q
0r
0z
0}
0~
#45
1!
1&
0'
1(
1*
03
07
1;
1<
1A
1D
1F
1N
1O
0W
0X
1Y
0a
0i
1k
1m
1q
1r
1t
0u
1y
1z
1}
1~
#50
0!
0&
0*
0;
0<
0A
0N
0k
0m
0q
0r
0z
0}
0~
#55
1!
0"
1$
1&
1'
0(
1*
1,
1-
1;
1<
1A
0D
0F
1N
0O
0P
1Q
1W
1c
1i
1k
1m
1q
1r
0t
1x
0y
1z
1}
1~
#60
0!
0&
0*
0;
0<
0A
0N
0k
0m
0q
0r
0z
0}
0~
#65
1!
1&
0'
1(
1*
13
17
1;
1<
1A
1F
1N
1O
0W
1X
1a
0i
1k
1m
1q
1r
1t
1u
1y
1z
1}
1~
#70
0!
0&
0*
0;
0<
0A
0N
0k
0m
0q
0r
0z
0}
0~
#75
1!
1"
1&
1'
0(
1*
0+
1;
1<
1A
0F
0G
1N
0O
1P
1W
0b
1i
1k
1m
1q
1r
0t
0y
1z
1}
1~
#80
0!
0&
0*
0;
0<
0A
0N
0k
0m
0q
0r
0z
0}
0~
#85
1!
1&
0'
1(
1*
03
07
1;
1<
1A
1D
1F
1N
1O
0W
0X
0Y
1Z
1`
0a
0i
1k
1m
1q
1r
1t
0u
1y
1z
1}
1~
#90
0!
0&
0*
0;
0<
0A
0N
0k
0m
0q
0r
0z
0}
0~
#95
1!
0"
0$
1%
1&
1'
0(
1*
15
1;
1<
1A
0D
0F
1N
0O
0P
0Q
1R
1W
1Z
0[
0`
1d
1i
1k
1m
1q
1r
0t
0y
1z
1{
1}
1~
0
#100
0!
0&
0*
0;
0<
0A
0N
0k
0m
0q
0r
0z
0}
0~
#105
1!
1&
0'
1(
1*
13
17
1;
1<
1A
1F
1N
1O
0W
1X
1a
0i
1k
1m
1q
1r
1t
1u
1y
1z
1}
1~
#110
0!
0&
0*
0;
0<
0A
0N
0k
0m
0q
0r
0z
0}
0~
#115
1!
1"
1&
1'
0(
1*
1+
1;
1<
1A
0F
1G
1N
0O
1P
1W
1b
1i
1k
1m
1q
1r
0t
0y
1z
1}
1~
#120
0!
0&
0*
0;
0<
0A
0N
0k
0m
0q
0r
0z
0}
0~
#125
1!
1&
0'
1(
1*
03
07
1;
1<
1A
1D
1F
1N
1O
0W
0X
1Y
0a
0i
1k
1m
1q
1r
1t
0u
1y
1z
1}
1~
#130
0!
0&
0*
0;
0<
0A
0N
0k
0m
0q
0r
0z
0}
0~
#135
1!
0"
1$
1&
1'
0(
1*
0,
0-
1;
1<
1A
0D
0F
1N
0O
0P
1Q
1W
0c
1i
1k
1m
1q
1r
0t
0x
0y
1z
1}
1~
#140
0!
0&
0*
0;
0<
0A
0N
0k
0m
0q
0r
0z
0}
0~
#145
1!
1&
0'
1(
1*
13
17
1;
1<
1A
1F
1N
1O
0W
1X
1a
0i
1k
1m
1q
1r
1t
1u
1y
1z
1}
1~
#150
0!
0&
0*
0;
0<
0A
0N
0k
0m
0q
0r
0z
0}
0~
#155
1!
1"
1&
1'
0(
1*
0+
1;
1<
1A
0F
0G
1N
0O
1P
1W
0b
1i
1k
1m
1q
1r
0t
0y
1z
1}
1~
#160
0!
0&
0*
0;
0<
0A
0N
0k
0m
0q
0r
0z
0}
0~
#165
1!
1&
0'
1(
1*
03
07
1;
1<
1A
1D
1F
1N
1O
0W
0X
0Y
0Z
1[
1`
0a
0i
1k
1m
1q
1r
1t
0u
1y
1z
1}
1~
1
#170
0!
0&
0*
0;
0<
0A
0N
0k
0m
0q
0r
0z
0}
0~
#175
1!
0"
0$
1&
1'
0(
1*
18
1;
1<
1A
1C
0D
0F
1N
0O
0P
0Q
0R
1S
1W
0Z
1[
0`
1e
1i
1k
1m
1q
1r
0t
1v
0y
1z
0{
1}
1~
0
#180
0!
0&
0*
0;
0<
0A
0N
0k
0m
0q
0r
0z
0}
0~
#185
1!
1&
0'
1(
1*
13
17
1;
1<
1A
1F
1N
1O
0W
1X
1a
0i
1k
1m
1q
1r
1t
1u
1y
1z
1}
1~
#190
0!
0&
0*
0;
0<
0A
0N
0k
0m
0q
0r
0z
0}
0~
#195
1!
1"
1&
1'
0(
1*
1+
1;
1<
1A
0F
1G
1N
0O
1P
1W
1b
1i
1k
1m
1q
1r
0t
0y
1z
1}
1~
#200
0!
0&
0*
0;
0<
0A
0N
0k
0m
0q
0r
0z
0}
0~
#205
1!
1&
0'
1(
1*
03
07
1;
1<
1A
1D
1F
1N
1O
0W
0X
1Y
0a
0i
1k
1m
1q
1r
1t
0u
1y
1z
1}
1~
#210
0!
0&
0*
0;
0<
0A
0N
0k
0m
0q
0r
0z
0}
0~
#215
1!
0"
1$
1&
1'
0(
1*
1,
1-
1;
1<
1A
0D
0F
1N
0O
0P
1Q
1W
1c
1i
1k
1m
1q
1r
0t
1x
0y
1z
1}
1~
#220
0!
0&
0*
0;
0<
0A
0N
0k
0m
0q
0r
0z
0}
0~
#225
1!
1&
0'
1(
1*
13
17
1;
1<
1A
1F
1N
1O
0W
1X
1a
0i
1k
1m
1q
1r
1t
1u
1y
1z
1}
1~
#230
0!
0&
0*
0;
0<
0A
0N
0k
0m
0q
0r
0z
0}
0~
#235
1!
1"
1&
1'
0(
1*
0+
1;
1<
1A
0F
0G
1N
0O
1P
1W
0b
1i
1k
1m
1q
1r
0t
0y
1z
1}
1~
#240
0!
0&
0*
0;
0<
0A
0N
0k
0m
0q
0r
0z
0}
0~
#245
1!
1&
0'
1(
1*
03
07
1;
1<
1A
1D
1F
1N
1O
0W
0X
0Y
1Z
1`
0a
0i
1k
1m
1q
1r
1t
0u
1y
1z
1}
1~
#250
0!
0&
0*
0;
0<
0A
0N
0k
0m
0q
0r
0z
0}
0~
#255
1!
0"
0$
0%
1&
1'
0(
1*
05
1;
1<
0>
1A
0D
0F
1N
0O
0P
0Q
1R
1W
1Z
1[
0\
0`
0d
1i
1k
1m
1q
1r
0t
0y
1z
1{
1}
1~
0
#260
0!
0&
0*
0;
0<
0A
0N
0k
0m
0q
0r
0z
0}
0~
#265
1!
1&
0'
1(
1*
13
17
1;
1<
1A
1F
1N
1O
0W
1X
1a
0i
1k
1m
1q
1r
1t
1u
1y
1z
1}
1~
#270
0!
0&
0*
0;
0<
0A
0N
0k
0m
0q
0r
0z
0}
0~
#275
1!
1"
1&
1'
0(
1*
1+
1;
1<
1A
0F
1G
1N
0O
1P
1W
1b
1i
1k
1m
1q
1r
0t
0y
1z
1}
1~
#280
0!
0&
0*
0;
0<
0A
0N
0k
0m
0q
0r
0z
0}
0~
#285
1!
1&
0'
1(
1*
03
07
1;
1<
1A
1D
1F
1N
1O
0W
0X
1Y
0a
0i
1k
1m
1q
1r
1t
0u
1y
1z
1}
1~
#290
0!
0&
0*
0;
0<
0A
0N
0k
0m
0q
0r
0z
0}
0~
#295
1!
0"
1$
1&
1'
0(
1*
0,
0-
1;
1<
1A
0D
0F
1N
0O
0P
1Q
1W
0c
1i
1k
1m
1q
1r
0t
0x
0y
1z
1}
1~
#300
0!
0&
0*
0;
0<
0A
0N
0k
0m
0q
0r
0z
0}
0~
#305
1!
1&
0'
1(
1*
13
17
1;
1<
1A
1F
1N
1O
0W
1X
1a
0i
1k
1m
1q
1r
1t
1u
1y
1z
1}
1~
#310
0!
0&
0*
0;
0<
0A
0N
0k
0m
0q
0r
0z
0}
0~
#315
1!
1"
1&
1'
0(
1*
0+
1;
1<
1A
0F
0G
1N
0O
1P
1W
0b
1i
1k
1m
1q
1r
0t
0y
1z
1}
1~
#320
0!
0&
0*
0;
0<
0A
0N
0k
0m
0q
0r
0z
0}
0~
#325
1!
1&
0'
1(
1*
03
07
1;
1<
1>
1A
1D
1F
1N
1O
0W
0X
0Y
0Z
0[
1\
1`
0a
0i
1k
1m
1q
1r
1t
0u
1y
1z
1}
1~
1
#330
0!
0&
0*
0;
0<
0A
0N
0k
0m
0q
0r
0z
0}
0~
#335
1!
0"
0$
1&
1'
0(
1*
12
1;
1<
0>
1?
1A
0D
0F
1N
0O
0P
0Q
0R
0S
1T
1W
0Z
0[
1\
0`
1f
1i
1j
1k
1m
1n
1q
1r
0t
0v
0y
1z
0{
1}
1~
0
#340
0!
0&
0*
0;
0<
0A
0N
0k
0m
0q
0r
0z
0}
0~
#345
1!
1&
0'
1(
1*
13
17
1;
1<
1A
1F
1N
1O
0W
1X
1a
0i
1k
1m
1q
1r
1t
1u
1y
1z
1}
1~
#350
0!
0&
0*
0;
0<
0A
0N
0k
0m
0q
0r
0z
0}
0~
#355
1!
1"
1&
1'
0(
1*
1+
1;
1<
1A
0F
1G
1N
0O
1P
1W
1b
1i
1k
1m
1q
1r
0t
0y
1z
1}
1~
#360
0!
0&
0*
0;
0<
0A
0N
0k
0m
0q
0r
0z
0}
0~
#365
1!
1&
0'
1(
1*
03
07
1;
1<
1A
1D
1F
1N
1O
0W
0X
1Y
0a
0i
1k
1m
1q
1r
1t
0u
1y
1z
1}
1~
#370
0!
0&
0*
0;
0<
0A
0N
0k
0m
0q
0r
0z
0}
0~
#375
1!
0"
1$
1&
1'
0(
1*
1,
1-
1;
1<
1A
0D
0F
1N
0O
0P
1Q
1W
1c
1i
1k
1m
1q
1r
0t
1x
0y
1z
1}
1~
#380
0!
0&
0*
0;
0<
0A
0N
0k
0m
0q
0r
0z
0}
0~
#385
1!
1&
0'
1(
1*
13
17
1;
1<
1A
1F
1N
1O
0W
1X
1a
0i
1k
1m
1q
1r
1t
1u
1y
1z
1}
1~
#390
0!
0&
0*
0;
0<
0A
0N
0k
0m
0q
0r
0z
0}
0~
#395
1!
1"
1&
1'
0(
1*
0+
1;
1<
1A
0F
0G
1N
0O
1P
1W
0b
1i
1k
1m
1q
1r
0t
0y
1z
1}
1~
