cppsimulator/cppsimulator/parsimony.vcd
$date
<date_and_time_specification>
$end
$version
ParSimony
$end
$timescale
1 ns
$end

$scope module top $end
$var wire 1 % out_3_OBUF_133[0] $end
$var wire 1 & clk_BUFGP[0] $end
$var wire 1 ( \cntr_inst/cntr_141[0] $end
$var wire 1 - out_2_OBUF_94[0] $end
$var wire 1 ! \NlwBufferSignal_gray_inst/count_0/CLK[0] $end
$var wire 1 * \NlwBufferSignal_gray_inst/count_1/CLK[0] $end
$var wire 1 : \NLW_gray_inst/Mcount_count_xor<7>_CO[1]_UNCONNECTED[0] $end
$var wire 1 < \NlwBufferSignal_gray_inst/count_7/CLK[0] $end
$var wire 1 > \NLW_gray_inst/Mcount_count_xor<7>_CO[0]_UNCONNECTED[0] $end
$var wire 1 A \NlwBufferSignal_gray_inst/count_6/CLK[0] $end
$var wire 1 B \NLW_gray_inst/Mcount_count_xor<7>_DI[3]_UNCONNECTED[0] $end
$var wire 1 D \NLW_gray_inst/Mcount_count_cy<3>_CO[1]_UNCONNECTED[0] $end
$var wire 1 F \NLW_gray_inst/Mcount_count_cy<3>_CO[0]_UNCONNECTED[0] $end
$var wire 1 I \NLW_gray_inst/Mcount_count_xor<7>_CO[2]_UNCONNECTED[0] $end
$var wire 1 J \NLW_gray_inst/Mcount_count_xor<7>_CO[3]_UNCONNECTED[0] $end
$var wire 1 N \NlwBufferSignal_gray_inst/count_5/CLK[0] $end
$var wire 1 ` \NLW_gray_inst/Mcount_count_cy<3>_CO[2]_UNCONNECTED[0] $end
$var wire 1 m \NlwBufferSignal_gray_inst/count_4/CLK[0] $end
$var wire 1 q \NlwBufferSignal_gray_inst/count_2/CLK[0] $end
$var wire 1 } \NlwBufferSignal_gray_inst/count_3/CLK[0] $end
$var wire 1 " \gray_inst/count<1>_rt_18[0] $end
$var wire 1 # \NLW_N0.C5LUT_O_UNCONNECTED[0] $end
$var wire 1 $ \gray_inst/count<2>_rt_14[0] $end
$var wire 1 ' \gray_inst/Mcount_count_lut[0] $end
$var wire 1 ) \NLW_N0_5.C5LUT_O_UNCONNECTED[0] $end
$var wire 1 + \NlwBufferSignal_out_1_OBUF/I[0] $end
$var wire 1 , \NlwBufferSignal_out_2_OBUF/I[0] $end
$var wire 1 . \NLW_N0_3.A5LUT_O_UNCONNECTED[0] $end
$var wire 1 / \ProtoComp1.CYINITGND.0[0] $end
$var wire 1 2 \NlwBufferSignal_out_5_OBUF/I[0] $end
$var wire 1 0 rst_IBUF_76[0] $end
$var wire 1 1 enable[0] $end
$var wire 1 3 out_0_OBUF_99[0] $end
$var wire 1 4 enable_IBUF_0[0] $end
$var wire 1 = out_6_OBUF_122[0] $end
$var wire 1 ? out_5_OBUF_0[0] $end
$var wire 1 @ CONST_ONE[0] $end
$var wire 1 C out_4_OBUF_143[0] $end
$var wire 1 G out_1_OBUF_128[0] $end
$var wire 1 5 \NlwBufferSignal_out_3_OBUF/I[0] $end
$var wire 1 6 \NlwBufferSignal_out_7_OBUF/I[0] $end
$var wire 1 7 \NlwBufferSignal_out_0_OBUF/I[0] $end
$var wire 1 8 \NlwBufferSignal_out_4_OBUF/I[0] $end
$var wire 1 9 \NlwBufferSignal_out_6_OBUF/I[0] $end
$var wire 1 M \NLW_N0_6.B5LUT_O_UNCONNECTED[0] $end
$var wire 1 ; clk[0] $end
$var wire 1 E VCC[0] $end
$var wire 1 H GND[0] $end
$var wire 1 K enable_IBUF_61[0] $end
$var wire 1 L rst_IBUF_0[0] $end
$var wire 1 O \gray_inst/count[7] $end
$var wire 1 P \gray_inst/count[6] $end
$var wire 1 Q \gray_inst/count[5] $end
$var wire 1 R \gray_inst/count[4] $end
$var wire 1 S \gray_inst/count[3] $end
$var wire 1 T \gray_inst/count[2] $end
$var wire 1 U \gray_inst/count[1] $end
$var wire 1 V \gray_inst/count[0] $end
$var wire 1 W \gray_inst/Result[7] $end
$var wire 1 X \gray_inst/Result[6] $end
$var wire 1 Y \gray_inst/Result[5] $end
$var wire 1 Z \gray_inst/Result[4] $end
$var wire 1 [ \gray_inst/Result[3] $end
$var wire 1 \ \gray_inst/Result[2] $end
$var wire 1 ] \gray_inst/Result[1] $end
$var wire 1 ^ \gray_inst/Result[0] $end
$var wire 1 _ \gray_inst/count<6>_rt_41[0] $end
$var wire 1 i \cntr_inst/cntr_INV_1_o[0] $end
$var wire 1 j \gray_inst/count<5>_rt_45[0] $end
$var wire 1 o \NLW_N1.A5LUT_O_UNCONNECTED[0] $end
$var wire 1 p \NLW_N0_2.B5LUT_O_UNCONNECTED[0] $end
$var wire 1 s \gray_inst/count<7>_rt_31[0] $end
$var wire 1 t \NlwBufferSignal_q_OBUF/I[0] $end
$var wire 1 v \gray_inst/count<4>_rt_49[0] $end
$var wire 1 w \NLW_N0_4.D5LUT_O_UNCONNECTED[0] $end
$var wire 1 a out[7] $end
$var wire 1 b out[6] $end
$var wire 1 c out[5] $end
$var wire 1 d out[4] $end
$var wire 1 e out[3] $end
$var wire 1 f out[2] $end
$var wire 1 k \clk_BUFGP/IBUFG_58[0] $end
$var wire 1 n out_5_OBUF_88[0] $end
$var wire 1 r \clk_BUFGP/IBUFG_0[0] $end
$var wire 1 u out_0_OBUF_0[0] $end
$var wire 1 x out_2_OBUF_0[0] $end
$var wire 1 g out[1] $end
$var wire 1 h out[0] $end
$var wire 1 l rst[0] $end
$var wire 1 y q[0] $end
$var wire 1 z \NlwBufferSignal_cntr_inst/cntr/CLK[0] $end
$var wire 1 { \gray_inst/count<3>_rt_2[0] $end
$var wire 1 ~ \NlwBufferSignal_clk_BUFGP/BUFG/IN[0] $end
$var wire 1  \gray_inst/Mcount_count_cy[3] $end
$var wire 1 | CONST_ZERO[0] $end

$upscope $end
$enddefinitions $end
#-1
x!
x!
x"
x#
x$
x%
x&
x&
x'
x(
x)
x*
x*
x+
x,
x-
x.
x0
x1
x2
x3
x4
x5
x6
x7
x8
x9
x:
x;
x;
x;
x;
x;
x;
x;
x;
x;
x;
x<
x=
x>
x?
x@
xA
xC
xD
xE
xF
xG
xH
xJ
xK
xL
xL
xN
xR
xW
xX
xY
x[
x\
x]
x^
x_
x`
xa
xa
xb
xb
xc
xd
xe
xg
xg
xh
xi
xk
xl
xm
xm
xn
xp
xq
xq
xr
xr
xt
xu
xv
xx
xy
xy
xz
x|
x}
x}
x~
x~
#0
0!
0!
0&
0&
0*
0*
z0
z0
04
04
z6
0;
0<
0<
0A
0A
1E
0H
xI
0K
zL
zL
xM
0N
0N
zO
0P
1Q
zS
0T
1U
xV
xZ
za
xf
xj
0k
0k
zl
0m
0m
xo
0q
0q
0r
0r
xs
0t
0t
xw
0y
0y
0z
0z
x{
0}
0}
0~
0~
x
#5
1!
1!
1&
1&
x(
1*
1*
x0
x0
x4
1;
1<
1<
1A
1A
xL
xL
1N
1N
1k
1k
1l
1m
1m
1q
1q
1r
1r
xt
xt
xy
xy
1z
1z
1}
1}
1~
1~
#15
1;
#20
0!
0!
0&
0&
0*
0*
10
0;
0<
0<
0A
0A
1L
0N
0N
0k
0k
0m
0m
0q
0q
0r
0r
0z
0z
0}
0}
0~
0~
#30
0;
#35
1!
1!
1&
1&
0(
1*
1*
1;
1<
1<
1A
1A
1N
1N
1k
1k
1m
1m
1q
1q
1r
1r
0t
0y
1z
1z
1}
1}
1~
1~
#45
1;
#50
0!
0!
0&
0&
0*
0*
0;
0<
0<
0A
0A
0N
0N
0k
0k
0m
0m
0q
0q
0r
0r
0z
0z
0}
0}
0~
0~
#60
0;
#65
1!
1!
1&
1&
1*
1*
1;
1<
1<
1A
1A
1N
1N
1k
1k
1m
1m
1q
1q
1r
1r
1z
1z
1}
1}
1~
1~
#75
1;
#80
0!
0!
0&
0&
0*
0*
0;
0<
0<
0A
0A
0N
0N
0k
0k
0m
0m
0q
0q
0r
0r
0z
0z
0}
0}
0~
0~
#90
0;
#95
1!
1!
1&
1&
1*
1*
1;
1<
1<
1A
1A
1N
1N
1k
1k
1m
1m
1q
1q
1r
1r
1z
1z
1}
1}
1~
1~
#105
x!
x!
x&
x&
x*
x*
1;
x<
x<
xA
xA
xN
xN
xk
xk
xm
xm
xq
xq
xr
xr
xz
xz
x}
x}
x~
x~
#120
0!
0!
0&
0&
0*
0*
0;
0<
0<
0A
0A
0N
0N
0k
0k
0m
0m
0q
0q
0r
0r
0z
0z
0}
0}
0~
0~
#125
1!
1!
1&
1&
1*
1*
1;
1<
1<
1A
1A
1N
1N
1k
1k
1m
1m
1q
1q
1r
1r
1z
1z
1}
1}
1~
1~
#135
1;
#140
0!
0!
0&
0&
0*
0*
0;
0<
0<
0A
0A
0N
0N
0k
0k
0m
0m
0q
0q
0r
0r
0z
0z
0}
0}
0~
0~
#150
0;
#155
1!
1!
1&
1&
1*
1*
1;
1<
1<
1A
1A
1N
1N
1k
1k
1m
1m
1q
1q
1r
1r
1z
1z
1}
1}
1~
1~
#165
1;
#170
0!
0!
0&
0&
0*
0*
0;
0<
0<
0A
0A
0N
0N
0k
0k
0m
0m
0q
0q
0r
0r
0z
0z
0}
0}
0~
0~
#180
0;
#185
1!
1!
1&
1&
1*
1*
1;
1<
1<
1A
1A
1N
1N
1k
1k
1m
1m
1q
1q
1r
1r
1z
1z
1}
1}
1~
1~
#195
1;
#200
0!
0!
0&
0&
0*
0*
0;
0<
0<
0A
0A
0N
0N
0k
0k
0m
0m
0q
0q
0r
0r
0z
0z
0}
0}
0~
0~
#210
0;
#215
1!
1!
1&
1&
1*
1*
1;
1<
1<
1A
1A
1N
1N
1k
1k
1m
1m
1q
1q
1r
1r
1z
1z
1}
1}
1~
1~
#225
x!
x!
x&
x&
x*
x*
1;
x<
x<
xA
xA
xN
xN
xk
xk
xm
xm
xq
xq
xr
xr
xz
xz
x}
x}
x~
x~
#240
0!
0!
0&
0&
0*
0*
0;
0<
0<
0A
0A
0N
0N
0k
0k
0m
0m
0q
0q
0r
0r
0z
0z
0}
0}
0~
0~
#245
1!
1!
1&
1&
1*
1*
1;
1<
1<
1A
1A
1N
1N
1k
1k
1m
1m
1q
1q
1r
1r
1z
1z
1}
1}
1~
1~
#255
1;
#260
0!
0!
0&
0&
0*
0*
0;
0<
0<
0A
0A
0N
0N
0k
0k
0m
0m
0q
0q
0r
0r
0z
0z
0}
0}
0~
0~
#270
0;
#275
1!
1!
1&
1&
1*
1*
1;
1<
1<
1A
1A
1N
1N
1k
1k
1m
1m
1q
1q
1r
1r
1z
1z
1}
1}
1~
1~
#285
1;
#290
0!
0!
0&
0&
0*
0*
0;
0<
0<
0A
0A
0N
0N
0k
0k
0m
0m
0q
0q
0r
0r
0z
0z
0}
0}
0~
0~
#300
0;
#305
1!
1!
1&
1&
1*
1*
1;
1<
1<
1A
1A
1N
1N
1k
1k
1m
1m
1q
1q
1r
1r
1z
1z
1}
1}
1~
1~
#315
1;
#320
0!
0!
0&
0&
0*
0*
0;
0<
0<
0A
0A
0N
0N
0k
0k
0m
0m
0q
0q
0r
0r
0z
0z
0}
0}
0~
0~
#330
0;
#335
1!
1!
1&
1&
1*
1*
1;
1<
1<
1A
1A
1N
1N
1k
1k
1m
1m
1q
1q
1r
1r
1z
1z
1}
1}
1~
1~
#345
1;
#350
0!
0!
0&
0&
0*
0*
0;
0<
0<
0A
0A
0N
0N
0k
0k
0m
0m
0q
0q
0r
0r
0z
0z
0}
0}
0~
0~
#360
0;
#365
1!
1!
1&
1&
1*
1*
1;
1<
1<
1A
1A
1N
1N
1k
1k
1m
1m
1q
1q
1r
1r
1z
1z
1}
1}
1~
1~
#375
1;
#380
0!
0!
0&
0&
0*
0*
0;
0<
0<
0A
0A
0N
0N
0k
0k
0m
0m
0q
0q
0r
0r
0z
0z
0}
0}
0~
0~
#390
0;
#395
1!
1!
1&
1&
1*
1*
1;
1<
1<
1A
1A
1N
1N
1k
1k
1m
1m
1q
1q
1r
1r
1z
1z
1}
1}
1~
1~
#405
1;
#410
0!
0!
0&
0&
0*
0*
0;
0<
0<
0A
0A
0N
0N
0k
0k
0m
0m
0q
0q
0r
0r
0z
0z
0}
0}
0~
0~
#420
0;
#425
1!
1!
1&
1&
1*
1*
1;
1<
1<
1A
1A
1N
1N
1k
1k
1m
1m
1q
1q
1r
1r
1z
1z
1}
1}
1~
1~
#435
1;
#440
0!
0!
0&
0&
0*
0*
0;
0<
0<
0A
0A
0N
0N
0k
0k
0m
0m
0q
0q
0r
0r
0z
0z
0}
0}
0~
0~
#450
0;
#455
1!
1!
1&
1&
1*
1*
1;
1<
1<
1A
1A
1N
1N
1k
1k
1m
1m
1q
1q
1r
1r
1z
1z
1}
1}
1~
1~
#465
x!
x!
x&
x&
x*
x*
1;
x<
x<
xA
xA
xN
xN
xk
xk
xm
xm
xq
xq
xr
xr
xz
xz
x}
x}
x~
x~
#480
0!
0!
0&
0&
0*
0*
0;
0<
0<
0A
0A
0N
0N
0k
0k
0m
0m
0q
0q
0r
0r
0z
0z
0}
0}
0~
0~
#485
1!
1!
1&
1&
1*
1*
1;
1<
1<
1A
1A
1N
1N
1k
1k
1m
1m
1q
1q
1r
1r
1z
1z
1}
1}
1~
1~
#495
1;
#500
0!
0!
0&
0&
0*
0*
0;
0<
0<
0A
0A
0N
0N
0k
0k
0m
0m
0q
0q
0r
0r
0z
0z
0}
0}
0~
0~
#510
0;
#515
1!
1!
1&
1&
1*
1*
1;
1<
1<
1A
1A
1N
1N
1k
1k
1m
1m
1q
1q
1r
1r
1z
1z
1}
1}
1~
1~
#525
1;
#530
0!
0!
0&
0&
0*
0*
0;
0<
0<
0A
0A
0N
0N
0k
0k
0m
0m
0q
0q
0r
0r
0z
0z
0}
0}
0~
0~
#540
0;
#545
1!
1!
1&
1&
1*
1*
1;
1<
1<
1A
1A
1N
1N
1k
1k
1m
1m
1q
1q
1r
1r
1z
1z
1}
1}
1~
1~
#555
1;
#560
0!
0!
0&
0&
0*
0*
0;
0<
0<
0A
0A
0N
0N
0k
0k
0m
0m
0q
0q
0r
0r
0z
0z
0}
0}
0~
0~
#570
0;
#575
1!
1!
1&
1&
1*
1*
1;
1<
1<
1A
1A
1N
1N
1k
1k
1m
1m
1q
1q
1r
1r
1z
1z
1}
1}
1~
1~
#585
1;
#590
0!
0!
0&
0&
0*
0*
0;
0<
0<
0A
0A
0N
0N
0k
0k
0m
0m
0q
0q
0r
0r
0z
0z
0}
0}
0~
0~
#600
0;
#605
1!
1!
1&
1&
1*
1*
1;
1<
1<
1A
1A
1N
1N
1k
1k
1m
1m
1q
1q
1r
1r
1z
1z
1}
1}
1~
1~
#615
1;
#620
0!
0!
0&
0&
0*
0*
0;
0<
0<
0A
0A
0N
0N
0k
0k
0m
0m
0q
0q
0r
0r
0z
0z
0}
0}
0~
0~
#630
0;
#635
1!
1!
1&
1&
1*
1*
1;
1<
1<
1A
1A
1N
1N
1k
1k
1m
1m
1q
1q
1r
1r
1z
1z
1}
1}
1~
1~
#645
1;
#650
0!
0!
0&
0&
0*
0*
0;
0<
0<
0A
0A
0N
0N
0k
0k
0m
0m
0q
0q
0r
0r
0z
0z
0}
0}
0~
0~
#660
0;
#665
1!
1!
1&
1&
1*
1*
1;
1<
1<
1A
1A
1N
1N
1k
1k
1m
1m
1q
1q
1r
1r
1z
1z
1}
1}
1~
1~
#675
1;
#680
0!
0!
0&
0&
0*
0*
0;
0<
0<
0A
0A
0N
0N
0k
0k
0m
0m
0q
0q
0r
0r
0z
0z
0}
0}
0~
0~
#690
0;
#695
1!
1!
1&
1&
1*
1*
1;
1<
1<
1A
1A
1N
1N
1k
1k
1m
1m
1q
1q
1r
1r
1z
1z
1}
1}
1~
1~
#705
1;
#710
0!
0!
0&
0&
0*
0*
0;
0<
0<
0A
0A
0N
0N
0k
0k
0m
0m
0q
0q
0r
0r
0z
0z
0}
0}
0~
0~
#720
0;
#725
1!
1!
1&
1&
1*
1*
1;
1<
1<
1A
1A
1N
1N
1k
1k
1m
1m
1q
1q
1r
1r
1z
1z
1}
1}
1~
1~
#735
1;
#740
0!
0!
0&
0&
0*
0*
0;
0<
0<
0A
0A
0N
0N
0k
0k
0m
0m
0q
0q
0r
0r
0z
0z
0}
0}
0~
0~
#750
0;
#755
1!
1!
1&
1&
1*
1*
1;
1<
1<
1A
1A
1N
1N
1k
1k
1m
1m
1q
1q
1r
1r
1z
1z
1}
1}
1~
1~
#765
1;
#770
0!
0!
0&
0&
0*
0*
0;
0<
0<
0A
0A
0N
0N
0k
0k
0m
0m
0q
0q
0r
0r
0z
0z
0}
0}
0~
0~
#780
0;
#785
1!
1!
1&
1&
1*
1*
1;
1<
1<
1A
1A
1N
1N
1k
1k
1m
1m
1q
1q
1r
1r
1z
1z
1}
1}
1~
1~
#795
1;
#800
0!
0!
0&
0&
0*
0*
0;
0<
0<
0A
0A
0N
0N
0k
0k
0m
0m
0q
0q
0r
0r
0z
0z
0}
0}
0~
0~
#810
0;
#815
1!
1!
1&
1&
1*
1*
1;
1<
1<
1A
1A
1N
1N
1k
1k
1m
1m
1q
1q
1r
1r
1z
1z
1}
1}
1~
1~
#825
1;
#830
0!
0!
0&
0&
0*
0*
0;
0<
0<
0A
0A
0N
0N
0k
0k
0m
0m
0q
0q
0r
0r
0z
0z
0}
0}
0~
0~
#840
0;
#845
1!
1!
1&
1&
1*
1*
1;
1<
1<
1A
1A
1N
1N
1k
1k
1m
1m
1q
1q
1r
1r
1z
1z
1}
1}
1~
1~
#855
1;
#860
0!
0!
0&
0&
0*
0*
0;
0<
0<
0A
0A
0N
0N
0k
0k
0m
0m
0q
0q
0r
0r
0z
0z
0}
0}
0~
0~
#870
0;
#875
1!
1!
1&
1&
1*
1*
1;
1<
1<
1A
1A
1N
1N
1k
1k
1m
1m
1q
1q
1r
1r
1z
1z
1}
1}
1~
1~
#885
1;
#890
0!
0!
0&
0&
0*
0*
0;
0<
0<
0A
0A
0N
0N
0k
0k
0m
0m
0q
0q
0r
0r
0z
0z
0}
0}
0~
0~
#900
0;
#905
1!
1!
1&
1&
1*
1*
1;
1<
1<
1A
1A
1N
1N
1k
1k
1m
1m
1q
1q
1r
1r
1z
1z
1}
1}
1~
1~
#915
1;
#920
0!
0!
0&
0&
0*
0*
0;
0<
0<
0A
0A
0N
0N
0k
0k
0m
0m
0q
0q
0r
0r
0z
0z
0}
0}
0~
0~
#930
0;
#935
1!
1!
1&
1&
1*
1*
1;
1<
1<
1A
1A
1N
1N
1k
1k
1m
1m
1q
1q
1r
1r
1z
1z
1}
1}
1~
1~
#945
x!
x!
x&
x&
x*
x*
1;
x<
x<
xA
xA
xN
xN
xk
xk
xm
xm
xq
xq
xr
xr
xz
xz
x}
x}
x~
x~
#960
0!
0!
0&
0&
0*
0*
0;
0<
0<
0A
0A
0N
0N
0k
0k
0m
0m
0q
0q
0r
0r
0z
0z
0}
0}
0~
0~
#965
1!
1!
1&
1&
1*
1*
1;
1<
1<
1A
1A
1N
1N
1k
1k
1m
1m
1q
1q
1r
1r
1z
1z
1}
1}
1~
1~
#975
1;
#980
0!
0!
0&
0&
0*
0*
0;
0<
0<
0A
0A
0N
0N
0k
0k
0m
0m
0q
0q
0r
0r
0z
0z
0}
0}
0~
0~
#990
0;
#995
1!
1!
1&
1&
1*
1*
1;
1<
1<
1A
1A
1N
1N
1k
1k
1m
1m
1q
1q
1r
1r
1z
1z
1}
1}
1~
1~
#1005
1;
#1010
0!
0!
0&
0&
0*
0*
0;
0<
0<
0A
0A
0N
0N
0k
0k
0m
0m
0q
0q
0r
0r
0z
0z
0}
0}
0~
0~
#1020
0;
#1025
1!
1!
1&
1&
1*
1*
1;
1<
1<
1A
1A
1N
1N
1k
1k
1m
1m
1q
1q
1r
1r
1z
1z
1}
1}
1~
1~
#1035
1;
#1040
0!
0!
0&
0&
0*
0*
0;
0<
0<
0A
0A
0N
0N
0k
0k
0m
0m
0q
0q
0r
0r
0z
0z
0}
0}
0~
0~
#1050
0;
#1055
1!
1!
1&
1&
1*
1*
1;
1<
1<
1A
1A
1N
1N
1k
1k
1m
1m
1q
1q
1r
1r
1z
1z
1}
1}
1~
1~
#1065
1;
#1070
0!
0!
0&
0&
0*
0*
0;
0<
0<
0A
0A
0N
0N
0k
0k
0m
0m
0q
0q
0r
0r
0z
0z
0}
0}
0~
0~
#1080
0;
#1085
1!
1!
1&
1&
1*
1*
1;
1<
1<
1A
1A
1N
1N
1k
1k
1m
1m
1q
1q
1r
1r
1z
1z
1}
1}
1~
1~
#1095
1;
#1100
0!
0!
0&
0&
0*
0*
0;
0<
0<
0A
0A
0N
0N
0k
0k
0m
0m
0q
0q
0r
0r
0z
0z
0}
0}
0~
0~
#1110
0;
#1115
1!
1!
1&
1&
1*
1*
1;
1<
1<
1A
1A
1N
1N
1k
1k
1m
1m
1q
1q
1r
1r
1z
1z
1}
1}
1~
1~
#1125
1;
#1130
0!
0!
0&
0&
0*
0*
0;
0<
0<
0A
0A
0N
0N
0k
0k
0m
0m
0q
0q
0r
0r
0z
0z
0}
0}
0~
0~
#1140
0;
#1145
1!
1!
1&
1&
1*
1*
1;
1<
1<
1A
1A
1N
1N
1k
1k
1m
1m
1q
1q
1r
1r
1z
1z
1}
1}
1~
1~
#1155
1;
#1160
0!
0!
0&
0&
0*
0*
0;
0<
0<
0A
0A
0N
0N
0k
0k
0m
0m
0q
0q
0r
0r
0z
0z
0}
0}
0~
0~
#1170
0;
#1175
1!
1!
1&
1&
1*
1*
1;
1<
1<
1A
1A
1N
1N
1k
1k
1m
1m
1q
1q
1r
1r
1z
1z
1}
1}
1~
1~
#1185
1;
#1190
0!
0!
0&
0&
0*
0*
0;
0<
0<
0A
0A
0N
0N
0k
0k
0m
0m
0q
0q
0r
0r
0z
0z
0}
0}
0~
0~
#1200
0;
#1205
1!
1!
1&
1&
1*
1*
1;
1<
1<
1A
1A
1N
1N
1k
1k
1m
1m
1q
1q
1r
1r
1z
1z
1}
1}
1~
1~
#1215
1;
#1220
0!
0!
0&
0&
0*
0*
0;
0<
0<
0A
0A
0N
0N
0k
0k
0m
0m
0q
0q
0r
0r
0z
0z
0}
0}
0~
0~
#1230
0;
#1235
1!
1!
1&
1&
1*
1*
1;
1<
1<
1A
1A
1N
1N
1k
1k
1m
1m
1q
1q
1r
1r
1z
1z
1}
1}
1~
1~
#1245
1;
#1250
0!
0!
0&
0&
0*
0*
0;
0<
0<
0A
0A
0N
0N
0k
0k
0m
0m
0q
0q
0r
0r
0z
0z
0}
0}
0~
0~
#1260
0;
#1265
1!
1!
1&
1&
1*
1*
1;
1<
1<
1A
1A
1N
1N
1k
1k
1m
1m
1q
1q
1r
1r
1z
1z
1}
1}
1~
1~
#1275
1;
#1280
0!
0!
0&
0&
0*
0*
0;
0<
0<
0A
0A
0N
0N
0k
0k
0m
0m
0q
0q
0r
0r
0z
0z
0}
0}
0~
0~
#1290
0;
#1295
1!
1!
1&
1&
1*
1*
1;
1<
1<
1A
1A
1N
1N
1k
1k
1m
1m
1q
1q
1r
1r
1z
1z
1}
1}
1~
1~
#1305
1;
#1310
0!
0!
0&
0&
0*
0*
0;
0<
0<
0A
0A
0N
0N
0k
0k
0m
0m
0q
0q
0r
0r
0z
0z
0}
0}
0~
0~
#1320
0;
#1325
1!
1!
1&
1&
1*
1*
1;
1<
1<
1A
1A
1N
1N
1k
1k
1m
1m
1q
1q
1r
1r
1z
1z
1}
1}
1~
1~
#1335
1;
#1340
0!
0!
0&
0&
0*
0*
0;
0<
0<
0A
0A
0N
0N
0k
0k
0m
0m
0q
0q
0r
0r
0z
0z
0}
0}
0~
0~
#1350
0;
#1355
1!
1!
1&
1&
1*
1*
1;
1<
1<
1A
1A
1N
1N
1k
1k
1m
1m
1q
1q
1r
1r
1z
1z
1}
1}
1~
1~
#1365
1;
#1370
0!
0!
0&
0&
0*
0*
0;
0<
0<
0A
0A
0N
0N
0k
0k
0m
0m
0q
0q
0r
0r
0z
0z
0}
0}
0~
0~
#1380
0;
#1385
1!
1!
1&
1&
1*
1*
1;
1<
1<
1A
1A
1N
1N
1k
1k
1m
1m
1q
1q
1r
1r
1z
1z
1}
1}
1~
1~
#1395
1;
#1400
0!
0!
0&
0&
0*
0*
0;
0<
0<
0A
0A
0N
0N
0k
0k
0m
0m
0q
0q
0r
0r
0z
0z
0}
0}
0~
0~
#1410
0;
#1415
1!
1!
1&
1&
1*
1*
1;
1<
1<
1A
1A
1N
1N
1k
1k
1m
1m
1q
1q
1r
1r
1z
1z
1}
1}
1~
1~
#1425
1;
#1430
0!
0!
0&
0&
0*
0*
0;
0<
0<
0A
0A
0N
0N
0k
0k
0m
0m
0q
0q
0r
0r
0z
0z
0}
0}
0~
0~
#1440
0;
#1445
1!
1!
1&
1&
1*
1*
1;
1<
1<
1A
1A
1N
1N
1k
1k
1m
1m
1q
1q
1r
1r
1z
1z
1}
1}
1~
1~
#1455
1;
#1460
0!
0!
0&
0&
0*
0*
0;
0<
0<
0A
0A
0N
0N
0k
0k
0m
0m
0q
0q
0r
0r
0z
0z
0}
0}
0~
0~
#1470
0;
#1475
1!
1!
1&
1&
1*
1*
1;
1<
1<
1A
1A
1N
1N
1k
1k
1m
1m
1q
1q
1r
1r
1z
1z
1}
1}
1~
1~
#1485
1;
#1490
0!
0!
0&
0&
0*
0*
0;
0<
0<
0A
0A
0N
0N
0k
0k
0m
0m
0q
0q
0r
0r
0z
0z
0}
0}
0~
0~
#1500
0;
#1505
1!
1!
1&
1&
1*
1*
1;
1<
1<
1A
1A
1N
1N
1k
1k
1m
1m
1q
1q
1r
1r
1z
1z
1}
1}
1~
1~
#1515
1;
#1520
0!
0!
0&
0&
0*
0*
0;
0<
0<
0A
0A
0N
0N
0k
0k
0m
0m
0q
0q
0r
0r
0z
0z
0}
0}
0~
0~
#1530
0;
#1535
1!
1!
1&
1&
1*
1*
1;
1<
1<
1A
1A
1N
1N
1k
1k
1m
1m
1q
1q
1r
1r
1z
1z
1}
1}
1~
1~
#1545
1;
#1550
0!
0!
0&
0&
0*
0*
0;
0<
0<
0A
0A
0N
0N
0k
0k
0m
0m
0q
0q
0r
0r
0z
0z
0}
0}
0~
0~
#1560
0;
#1565
1!
1!
1&
1&
1*
1*
1;
1<
1<
1A
1A
1N
1N
1k
1k
1m
1m
1q
1q
1r
1r
1z
1z
1}
1}
1~
1~
#1575
1;
#1580
0!
0!
0&
0&
0*
0*
0;
0<
0<
0A
0A
0N
0N
0k
0k
0m
0m
0q
0q
0r
0r
0z
0z
0}
0}
0~
0~
#1590
0;
#1595
1!
1!
1&
1&
1*
1*
1;
1<
1<
1A
1A
1N
1N
1k
1k
1m
1m
1q
1q
1r
1r
1z
1z
1}
1}
1~
1~
#1605
1;
#1610
0!
0!
0&
0&
0*
0*
0;
0<
0<
0A
0A
0N
0N
0k
0k
0m
0m
0q
0q
0r
0r
0z
0z
0}
0}
0~
0~
#1620
0;
#1625
1!
1!
1&
1&
1*
1*
1;
1<
1<
1A
1A
1N
1N
1k
1k
1m
1m
1q
1q
1r
1r
1z
1z
1}
1}
1~
1~
#1635
1;
#1640
0!
0!
0&
0&
0*
0*
0;
0<
0<
0A
0A
0N
0N
0k
0k
0m
0m
0q
0q
0r
0r
0z
0z
0}
0}
0~
0~
#1650
0;
#1655
1!
1!
1&
1&
1*
1*
1;
1<
1<
1A
1A
1N
1N
1k
1k
1m
1m
1q
1q
1r
1r
1z
1z
1}
1}
1~
1~
#1665
1;
#1670
0!
0!
0&
0&
0*
0*
0;
0<
0<
0A
0A
0N
0N
0k
0k
0m
0m
0q
0q
0r
0r
0z
0z
0}
0}
0~
0~
#1680
0;
#1685
1!
1!
1&
1&
1*
1*
1;
1<
1<
1A
1A
1N
1N
1k
1k
1m
1m
1q
1q
1r
1r
1z
1z
1}
1}
1~
1~
#1695
1;
#1700
0!
0!
0&
0&
0*
0*
0;
0<
0<
0A
0A
0N
0N
0k
0k
0m
0m
0q
0q
0r
0r
0z
0z
0}
0}
0~
0~
#1710
0;
#1715
1!
1!
1&
1&
1*
1*
1;
1<
1<
1A
1A
1N
1N
1k
1k
1m
1m
1q
1q
1r
1r
1z
1z
1}
1}
1~
1~
#1725
1;
#1730
0!
0!
0&
0&
0*
0*
0;
0<
0<
0A
0A
0N
0N
0k
0k
0m
0m
0q
0q
0r
0r
0z
0z
0}
0}
0~
0~
#1740
0;
#1745
1!
1!
1&
1&
1*
1*
1;
1<
1<
1A
1A
1N
1N
1k
1k
1m
1m
1q
1q
1r
1r
1z
1z
1}
1}
1~
1~
#1755
1;
#1760
0!
0!
0&
0&
0*
0*
0;
0<
0<
0A
0A
0N
0N
0k
0k
0m
0m
0q
0q
0r
0r
0z
0z
0}
0}
0~
0~
#1770
0;
#1775
1!
1!
1&
1&
1*
1*
1;
1<
1<
1A
1A
1N
1N
1k
1k
1m
1m
1q
1q
1r
1r
1z
1z
1}
1}
1~
1~
#1785
1;
#1790
0!
0!
0&
0&
0*
0*
0;
0<
0<
0A
0A
0N
0N
0k
0k
0m
0m
0q
0q
0r
0r
0z
0z
0}
0}
0~
0~
#1800
0;
#1805
1!
1!
1&
1&
1*
1*
1;
1<
1<
1A
1A
1N
1N
1k
1k
1m
1m
1q
1q
1r
1r
1z
1z
1}
1}
1~
1~
#1815
1;
#1820
0!
0!
0&
0&
0*
0*
0;
0<
0<
0A
0A
0N
0N
0k
0k
0m
0m
0q
0q
0r
0r
0z
0z
0}
0}
0~
0~
#1830
0;
#1835
1!
1!
1&
1&
1*
1*
1;
1<
1<
1A
1A
1N
1N
1k
1k
1m
1m
1q
1q
1r
1r
1z
1z
1}
1}
1~
1~
#1845
1;
#1850
0!
0!
0&
0&
0*
0*
0;
0<
0<
0A
0A
0N
0N
0k
0k
0m
0m
0q
0q
0r
0r
0z
0z
0}
0}
0~
0~
#1860
0;
