cppsimulator/cppsimulator/parsimony4000.vcd
$date
<date_and_time_specification>
$end
$version
ParSimony
$end
$timescale
1 ns
$end

$scope module top $end
$var wire 1 1000 \NlwBufferSignal_gray_inst/count_0/CLK[0] $end
$var wire 1 1001 \gray_inst/count<1>_rt_18[0] $end
$var wire 1 1002 \NLW_N0.C5LUT_O_UNCONNECTED[0] $end
$var wire 1 1003 \gray_inst/count<2>_rt_14[0] $end
$var wire 1 1004 out_3_OBUF_133[0] $end
$var wire 1 1005 clk_BUFGP[0] $end
$var wire 1 1006 \gray_inst/Mcount_count_lut[0] $end
$var wire 1 1007 \cntr_inst/cntr_141[0] $end
$var wire 1 1008 \NLW_N0_5.C5LUT_O_UNCONNECTED[0] $end
$var wire 1 1009 \NlwBufferSignal_gray_inst/count_1/CLK[0] $end
$var wire 1 1010 \NlwBufferSignal_out_1_OBUF/I[0] $end
$var wire 1 1011 \NlwBufferSignal_out_2_OBUF/I[0] $end
$var wire 1 1012 out_2_OBUF_94[0] $end
$var wire 1 1013 \NLW_N0_3.A5LUT_O_UNCONNECTED[0] $end
$var wire 1 1014 \ProtoComp1.CYINITGND.0[0] $end
$var wire 1 1015 rst_IBUF_76[0] $end
$var wire 1 1016 enable[0] $end
$var wire 1 1017 \NlwBufferSignal_out_5_OBUF/I[0] $end
$var wire 1 1018 out_0_OBUF_99[0] $end
$var wire 1 1019 enable_IBUF_0[0] $end
$var wire 1 1020 \NlwBufferSignal_out_3_OBUF/I[0] $end
$var wire 1 1021 \NlwBufferSignal_out_7_OBUF/I[0] $end
$var wire 1 1022 \NlwBufferSignal_out_0_OBUF/I[0] $end
$var wire 1 1023 \NlwBufferSignal_out_4_OBUF/I[0] $end
$var wire 1 1024 \NlwBufferSignal_out_6_OBUF/I[0] $end
$var wire 1 1025 \NLW_gray_inst/Mcount_count_xor<7>_CO[1]_UNCONNECTED[0] $end
$var wire 1 1026 clk[0] $end
$var wire 1 1027 \NlwBufferSignal_gray_inst/count_7/CLK[0] $end
$var wire 1 1028 out_6_OBUF_122[0] $end
$var wire 1 1029 \NLW_gray_inst/Mcount_count_xor<7>_CO[0]_UNCONNECTED[0] $end
$var wire 1 1030 out_5_OBUF_0[0] $end
$var wire 1 1031 CONST_ONE[0] $end
$var wire 1 1032 \NlwBufferSignal_gray_inst/count_6/CLK[0] $end
$var wire 1 1033 \NLW_gray_inst/Mcount_count_xor<7>_DI[3]_UNCONNECTED[0] $end
$var wire 1 1034 out_4_OBUF_143[0] $end
$var wire 1 1035 \NLW_gray_inst/Mcount_count_cy<3>_CO[1]_UNCONNECTED[0] $end
$var wire 1 1036 VCC[0] $end
$var wire 1 1037 \NLW_gray_inst/Mcount_count_cy<3>_CO[0]_UNCONNECTED[0] $end
$var wire 1 1038 out_1_OBUF_128[0] $end
$var wire 1 1039 GND[0] $end
$var wire 1 1040 \NLW_gray_inst/Mcount_count_xor<7>_CO[2]_UNCONNECTED[0] $end
$var wire 1 1041 \NLW_gray_inst/Mcount_count_xor<7>_CO[3]_UNCONNECTED[0] $end
$var wire 1 1042 enable_IBUF_61[0] $end
$var wire 1 1043 rst_IBUF_0[0] $end
$var wire 1 1044 \NLW_N0_6.B5LUT_O_UNCONNECTED[0] $end
$var wire 1 1045 \NlwBufferSignal_gray_inst/count_5/CLK[0] $end
$var wire 1 1046 \gray_inst/count[7] $end
$var wire 1 1047 \gray_inst/count[6] $end
$var wire 1 1048 \gray_inst/count[5] $end
$var wire 1 1049 \gray_inst/count[4] $end
$var wire 1 1050 \gray_inst/count[3] $end
$var wire 1 1051 \gray_inst/count[2] $end
$var wire 1 1052 \gray_inst/count[1] $end
$var wire 1 1053 \gray_inst/count[0] $end
$var wire 1 1054 \gray_inst/Result[7] $end
$var wire 1 1055 \gray_inst/Result[6] $end
$var wire 1 1056 \gray_inst/Result[5] $end
$var wire 1 1057 \gray_inst/Result[4] $end
$var wire 1 1058 \gray_inst/Result[3] $end
$var wire 1 1059 \gray_inst/Result[2] $end
$var wire 1 1060 \gray_inst/Result[1] $end
$var wire 1 1061 \gray_inst/Result[0] $end
$var wire 1 1062 \gray_inst/count<6>_rt_41[0] $end
$var wire 1 1063 \NLW_gray_inst/Mcount_count_cy<3>_CO[2]_UNCONNECTED[0] $end
$var wire 1 1064 out[7] $end
$var wire 1 1065 out[6] $end
$var wire 1 1066 out[5] $end
$var wire 1 1067 out[4] $end
$var wire 1 1068 out[3] $end
$var wire 1 1069 out[2] $end
$var wire 1 1070 out[1] $end
$var wire 1 1071 out[0] $end
$var wire 1 1072 \cntr_inst/cntr_INV_1_o[0] $end
$var wire 1 1073 \gray_inst/count<5>_rt_45[0] $end
$var wire 1 1074 \clk_BUFGP/IBUFG_58[0] $end
$var wire 1 1075 rst[0] $end
$var wire 1 1076 \NlwBufferSignal_gray_inst/count_4/CLK[0] $end
$var wire 1 1077 out_5_OBUF_88[0] $end
$var wire 1 1078 \NLW_N1.A5LUT_O_UNCONNECTED[0] $end
$var wire 1 1079 \NLW_N0_2.B5LUT_O_UNCONNECTED[0] $end
$var wire 1 1080 \NlwBufferSignal_gray_inst/count_2/CLK[0] $end
$var wire 1 1081 \clk_BUFGP/IBUFG_0[0] $end
$var wire 1 1082 \gray_inst/count<7>_rt_31[0] $end
$var wire 1 1083 \NlwBufferSignal_q_OBUF/I[0] $end
$var wire 1 1084 out_0_OBUF_0[0] $end
$var wire 1 1085 \gray_inst/count<4>_rt_49[0] $end
$var wire 1 1086 \NLW_N0_4.D5LUT_O_UNCONNECTED[0] $end
$var wire 1 1087 out_2_OBUF_0[0] $end
$var wire 1 1088 q[0] $end
$var wire 1 1089 \NlwBufferSignal_cntr_inst/cntr/CLK[0] $end
$var wire 1 1090 \gray_inst/count<3>_rt_2[0] $end
$var wire 1 1091 CONST_ZERO[0] $end
$var wire 1 1092 \NlwBufferSignal_gray_inst/count_3/CLK[0] $end
$var wire 1 1093 \NlwBufferSignal_clk_BUFGP/BUFG/IN[0] $end
$var wire 1 1094 \gray_inst/Mcount_count_cy[3] $end

$upscope $end
$enddefinitions $end
#0
01000
x1001
01002
x1003
x1004
01005
x1006
x1007
01008
01009
x1010
x1011
x1012
01013
01014
x1015
x1016
x1017
x1018
x1019
x1020
x1021
x1022
x1023
x1024
x1025
01026
01027
x1028
x1029
x1030
11031
01032
x1033
x1034
x1035
11036
x1037
x1038
01039
x1040
x1041
x1042
x1043
01044
01045
x1046
x1047
x1048
x1049
x1050
x1051
x1052
x1053
x1054
x1055
x1056
x1057
x1058
x1059
x1060
x1061
x1062
x1063
x1064
x1065
x1066
x1067
x1068
x1069
x1070
x1071
x1072
x1073
01074
x1075
01076
x1077
11078
01079
01080
01081
x1082
x1083
x1084
x1085
01086
x1087
x1088
01089
x1090
01091
01092
01093
x1094
#5
11000
11005
11009
11015
11016
11019
11026
11027
11032
11042
11043
11045
11074
11075
11076
11080
11081
11089
11092
11093
#10
01000
01005
01009
01026
01027
01032
01045
01074
01076
01080
01081
01089
01092
01093
#15
11000
01001
01003
01004
11005
11006
01007
11009
01010
01011
01012
01017
01018
01020
01021
01022
01023
01024
01025
11026
11027
01028
01029
01030
11032
01034
01035
01037
01038
01040
11045
01046
01047
01048
01049
01050
01051
01052
01053
01054
01055
01056
01057
01058
01059
01060
11061
01062
01063
01064
01065
01066
01067
01068
01069
01070
01071
11072
01073
11074
11076
01077
11080
11081
01082
01083
01084
01085
01087
01088
11089
01090
11092
11093
01094
#20
01000
01005
01009
01015
01026
01027
01032
01043
01045
01074
01075
01076
01080
01081
01089
01092
01093
#25
11000
11005
01006
11007
11009
11018
11022
11026
11027
11032
11037
11045
11053
11060
01061
11071
01072
11074
11076
11080
11081
11083
11084
11088
11089
11092
11093
#30
01000
01005
01009
01026
01027
01032
01045
01074
01076
01080
01081
01089
01092
01093
#35
11000
11001
11005
11006
01007
11009
11010
11026
11027
11032
01037
11038
11045
11052
01053
11061
11070
11072
11074
11076
11080
11081
01083
01088
11089
11092
11093
#40
01000
01005
01009
01026
01027
01032
01045
01074
01076
01080
01081
01089
01092
01093
#45
11000
11005
01006
11007
11009
01018
01022
11026
11027
11032
11035
11037
11045
11053
11059
01060
01061
01071
01072
11074
11076
11080
11081
11083
01084
11088
11089
11092
11093
#50
01000
01005
01009
01026
01027
01032
01045
01074
01076
01080
01081
01089
01092
01093
#55
11000
01001
11003
11005
11006
01007
11009
11011
11012
11026
11027
11032
01035
01037
11045
11051
01052
01053
11061
11069
11072
11074
11076
11080
11081
01083
11087
01088
11089
11092
11093
#60
01000
01005
01009
01026
01027
01032
01045
01074
01076
01080
01081
01089
01092
01093
#65
11000
11005
01006
11007
11009
11018
11022
11026
11027
11032
11037
11045
11053
11060
01061
11071
01072
11074
11076
11080
11081
11083
11084
11088
11089
11092
11093
#70
01000
01005
01009
01026
01027
01032
01045
01074
01076
01080
01081
01089
01092
01093
#75
11000
11001
11005
11006
01007
11009
01010
11026
11027
11032
01037
01038
11045
11052
01053
11061
01070
11072
11074
11076
11080
11081
01083
01088
11089
11092
11093
#80
01000
01005
01009
01026
01027
01032
01045
01074
01076
01080
01081
01089
01092
01093
#85
11000
11005
01006
11007
11009
01018
01022
11026
11027
11032
11035
11037
11045
11053
11058
01059
01060
01061
11063
01071
01072
11074
11076
11080
11081
11083
01084
11088
11089
11092
11093
#90
01000
01005
01009
01026
01027
01032
01045
01074
01076
01080
01081
01089
01092
01093
#95
11000
01001
01003
11004
11005
11006
01007
11009
11020
11026
11027
11032
01035
01037
11045
11050
01051
01052
01053
11061
01063
11068
11072
11074
11076
11080
11081
01083
01088
11089
11090
11092
11093
#100
01000
01005
01009
01026
01027
01032
01045
01074
01076
01080
01081
01089
01092
01093
#105
11000
11005
01006
11007
11009
11018
11022
11026
11027
11032
11037
11045
11053
11060
01061
11071
01072
11074
11076
11080
11081
11083
11084
11088
11089
11092
11093
#110
01000
01005
01009
01026
01027
01032
01045
01074
01076
01080
01081
01089
01092
01093
#115
11000
11001
11005
11006
01007
11009
11010
11026
11027
11032
01037
11038
11045
11052
01053
11061
11070
11072
11074
11076
11080
11081
01083
01088
11089
11092
11093
#120
01000
01005
01009
01026
01027
01032
01045
01074
01076
01080
01081
01089
01092
01093
#125
11000
11005
01006
11007
11009
01018
01022
11026
11027
11032
11035
11037
11045
11053
11059
01060
01061
01071
01072
11074
11076
11080
11081
11083
01084
11088
11089
11092
11093
#130
01000
01005
01009
01026
01027
01032
01045
01074
01076
01080
01081
01089
01092
01093
#135
11000
01001
11003
11005
11006
01007
11009
01011
01012
11026
11027
11032
01035
01037
11045
11051
01052
01053
11061
01069
11072
11074
11076
11080
11081
01083
01087
01088
11089
11092
11093
#140
01000
01005
01009
01026
01027
01032
01045
01074
01076
01080
01081
01089
01092
01093
#145
11000
11005
01006
11007
11009
11018
11022
11026
11027
11032
11037
11045
11053
11060
01061
11071
01072
11074
11076
11080
11081
11083
11084
11088
11089
11092
11093
#150
01000
01005
01009
01026
01027
01032
01045
01074
01076
01080
01081
01089
01092
01093
#155
11000
11001
11005
11006
01007
11009
01010
11026
11027
11032
01037
01038
11045
11052
01053
11061
01070
11072
11074
11076
11080
11081
01083
01088
11089
11092
11093
#160
01000
01005
01009
01026
01027
01032
01045
01074
01076
01080
01081
01089
01092
01093
#165
11000
11005
01006
11007
11009
01018
01022
11026
11027
11032
11035
11037
11045
11053
11057
01058
01059
01060
01061
11063
01071
01072
11074
11076
11080
11081
11083
01084
11088
11089
11092
11093
11094
#170
01000
01005
01009
01026
01027
01032
01045
01074
01076
01080
01081
01089
01092
01093
#175
11000
01001
01003
11005
11006
01007
11009
11023
11026
11027
11032
11034
01035
01037
11045
11049
01050
01051
01052
01053
11061
01063
11067
11072
11074
11076
11080
11081
01083
11085
01088
11089
01090
11092
11093
01094
#180
01000
01005
01009
01026
01027
01032
01045
01074
01076
01080
01081
01089
01092
01093
#185
11000
11005
01006
11007
11009
11018
11022
11026
11027
11032
11037
11045
11053
11060
01061
11071
01072
11074
11076
11080
11081
11083
11084
11088
11089
11092
11093
#190
01000
01005
01009
01026
01027
01032
01045
01074
01076
01080
01081
01089
01092
01093
#195
11000
11001
11005
11006
01007
11009
11010
11026
11027
11032
01037
11038
11045
11052
01053
11061
11070
11072
11074
11076
11080
11081
01083
01088
11089
11092
11093
#200
01000
01005
01009
01026
01027
01032
01045
01074
01076
01080
01081
01089
01092
01093
#205
11000
11005
01006
11007
11009
01018
01022
11026
11027
11032
11035
11037
11045
11053
11059
01060
01061
01071
01072
11074
11076
11080
11081
11083
01084
11088
11089
11092
11093
#210
01000
01005
01009
01026
01027
01032
01045
01074
01076
01080
01081
01089
01092
01093
#215
11000
01001
11003
11005
11006
01007
11009
11011
11012
11026
11027
11032
01035
01037
11045
11051
01052
01053
11061
11069
11072
11074
11076
11080
11081
01083
11087
01088
11089
11092
11093
#220
01000
01005
01009
01026
01027
01032
01045
01074
01076
01080
01081
01089
01092
01093
#225
11000
11005
01006
11007
11009
11018
11022
11026
11027
11032
11037
11045
11053
11060
01061
11071
01072
11074
11076
11080
11081
11083
11084
11088
11089
11092
11093
#230
01000
01005
01009
01026
01027
01032
01045
01074
01076
01080
01081
01089
01092
01093
#235
11000
11001
11005
11006
01007
11009
01010
11026
11027
11032
01037
01038
11045
11052
01053
11061
01070
11072
11074
11076
11080
11081
01083
01088
11089
11092
11093
#240
01000
01005
01009
01026
01027
01032
01045
01074
01076
01080
01081
01089
01092
01093
#245
11000
11005
01006
11007
11009
01018
01022
11026
11027
11032
11035
11037
11045
11053
11058
01059
01060
01061
11063
01071
01072
11074
11076
11080
11081
11083
01084
11088
11089
11092
11093
#250
01000
01005
01009
01026
01027
01032
01045
01074
01076
01080
01081
01089
01092
01093
#255
11000
01001
01003
01004
11005
11006
01007
11009
01020
11026
11027
11032
01035
01037
11045
11050
01051
01052
01053
11061
01063
01068
11072
11074
11076
11080
11081
01083
01088
11089
11090
11092
11093
#260
01000
01005
01009
01026
01027
01032
01045
01074
01076
01080
01081
01089
01092
01093
#265
11000
11005
01006
11007
11009
11018
11022
11026
11027
11032
11037
11045
11053
11060
01061
11071
01072
11074
11076
11080
11081
11083
11084
11088
11089
11092
11093
#270
01000
01005
01009
01026
01027
01032
01045
01074
01076
01080
01081
01089
01092
01093
#275
11000
11001
11005
11006
01007
11009
11010
11026
11027
11032
01037
11038
11045
11052
01053
11061
11070
11072
11074
11076
11080
11081
01083
01088
11089
11092
11093
#280
01000
01005
01009
01026
01027
01032
01045
01074
01076
01080
01081
01089
01092
01093
#285
11000
11005
01006
11007
11009
01018
01022
11026
11027
11032
11035
11037
11045
11053
11059
01060
01061
01071
01072
11074
11076
11080
11081
11083
01084
11088
11089
11092
11093
#290
01000
01005
01009
01026
01027
01032
01045
01074
01076
01080
01081
01089
01092
01093
#295
11000
01001
11003
11005
11006
01007
11009
01011
01012
11026
11027
11032
01035
01037
11045
11051
01052
01053
11061
01069
11072
11074
11076
11080
11081
01083
01087
01088
11089
11092
11093
#300
01000
01005
01009
01026
01027
01032
01045
01074
01076
01080
01081
01089
01092
01093
#305
11000
11005
01006
11007
11009
11018
11022
11026
11027
11032
11037
11045
11053
11060
01061
11071
01072
11074
11076
11080
11081
11083
11084
11088
11089
11092
11093
#310
01000
01005
01009
01026
01027
01032
01045
01074
01076
01080
01081
01089
01092
01093
#315
11000
11001
11005
11006
01007
11009
01010
11026
11027
11032
01037
01038
11045
11052
01053
11061
01070
11072
11074
11076
11080
11081
01083
01088
11089
11092
11093
#320
01000
01005
01009
01026
01027
01032
01045
01074
01076
01080
01081
01089
01092
01093
#325
11000
11005
01006
11007
11009
01018
01022
11026
11027
11029
11032
11035
11037
11045
11053
11056
01057
01058
01059
01060
01061
11063
01071
01072
11074
11076
11080
11081
11083
01084
11088
11089
11092
11093
11094
#330
01000
01005
01009
01026
01027
01032
01045
01074
01076
01080
01081
01089
01092
01093
#335
11000
01001
01003
11005
11006
01007
11009
11017
11026
11027
01029
11030
11032
01035
01037
11045
11048
01049
01050
01051
01052
01053
11061
01063
11066
11072
11073
11074
11076
11077
11080
11081
01083
01085
01088
11089
01090
11092
11093
01094
#340
01000
01005
01009
01026
01027
01032
01045
01074
01076
01080
01081
01089
01092
01093
#345
11000
11005
01006
11007
11009
11018
11022
11026
11027
11032
11037
11045
11053
11060
01061
11071
01072
11074
11076
11080
11081
11083
11084
11088
11089
11092
11093
#350
01000
01005
01009
01026
01027
01032
01045
01074
01076
01080
01081
01089
01092
01093
#355
11000
11001
11005
11006
01007
11009
11010
11026
11027
11032
01037
11038
11045
11052
01053
11061
11070
11072
11074
11076
11080
11081
01083
01088
11089
11092
11093
#360
01000
01005
01009
01026
01027
01032
01045
01074
01076
01080
01081
01089
01092
01093
#365
11000
11005
01006
11007
11009
01018
01022
11026
11027
11032
11035
11037
11045
11053
11059
01060
01061
01071
01072
11074
11076
11080
11081
11083
01084
11088
11089
11092
11093
#370
01000
01005
01009
01026
01027
01032
01045
01074
01076
01080
01081
01089
01092
01093
#375
11000
01001
11003
11005
11006
01007
11009
11011
11012
11026
11027
11032
01035
01037
11045
11051
01052
01053
11061
11069
11072
11074
11076
11080
11081
01083
11087
01088
11089
11092
11093
#380
01000
01005
01009
01026
01027
01032
01045
01074
01076
01080
01081
01089
01092
01093
#385
11000
11005
01006
11007
11009
11018
11022
11026
11027
11032
11037
11045
11053
11060
01061
11071
01072
11074
11076
11080
11081
11083
11084
11088
11089
11092
11093
#390
01000
01005
01009
01026
01027
01032
01045
01074
01076
01080
01081
01089
01092
01093
#395
11000
11001
11005
11006
01007
11009
01010
11026
11027
11032
01037
01038
11045
11052
01053
11061
01070
11072
11074
11076
11080
11081
01083
01088
11089
11092
11093
#400
01000
01005
01009
01026
01027
01032
01045
01074
01076
01080
01081
01089
01092
01093
#405
11000
11005
01006
11007
11009
01018
01022
11026
11027
11032
11035
11037
11045
11053
11058
01059
01060
01061
11063
01071
01072
11074
11076
11080
11081
11083
01084
11088
11089
11092
11093
#410
01000
01005
01009
01026
01027
01032
01045
01074
01076
01080
01081
01089
01092
01093
#415
11000
01001
01003
11004
11005
11006
01007
11009
11020
11026
11027
11032
01035
01037
11045
11050
01051
01052
01053
11061
01063
11068
11072
11074
11076
11080
11081
01083
01088
11089
11090
11092
11093
#420
01000
01005
01009
01026
01027
01032
01045
01074
01076
01080
01081
01089
01092
01093
#425
11000
11005
01006
11007
11009
11018
11022
11026
11027
11032
11037
11045
11053
11060
01061
11071
01072
11074
11076
11080
11081
11083
11084
11088
11089
11092
11093
#430
01000
01005
01009
01026
01027
01032
01045
01074
01076
01080
01081
01089
01092
01093
#435
11000
11001
11005
11006
01007
11009
11010
11026
11027
11032
01037
11038
11045
11052
01053
11061
11070
11072
11074
11076
11080
11081
01083
01088
11089
11092
11093
#440
01000
01005
01009
01026
01027
01032
01045
01074
01076
01080
01081
01089
01092
01093
#445
11000
11005
01006
11007
11009
01018
01022
11026
11027
11032
11035
11037
11045
11053
11059
01060
01061
01071
01072
11074
11076
11080
11081
11083
01084
11088
11089
11092
11093
#450
01000
01005
01009
01026
01027
01032
01045
01074
01076
01080
01081
01089
01092
01093
#455
11000
01001
11003
11005
11006
01007
11009
01011
01012
11026
11027
11032
01035
01037
11045
11051
01052
01053
11061
01069
11072
11074
11076
11080
11081
01083
01087
01088
11089
11092
11093
#460
01000
01005
01009
01026
01027
01032
01045
01074
01076
01080
01081
01089
01092
01093
#465
11000
11005
01006
11007
11009
11018
11022
11026
11027
11032
11037
11045
11053
11060
01061
11071
01072
11074
11076
11080
11081
11083
11084
11088
11089
11092
11093
#470
01000
01005
01009
01026
01027
01032
01045
01074
01076
01080
01081
01089
01092
01093
#475
11000
11001
11005
11006
01007
11009
01010
11026
11027
11032
01037
01038
11045
11052
01053
11061
01070
11072
11074
11076
11080
11081
01083
01088
11089
11092
11093
#480
01000
01005
01009
01026
01027
01032
01045
01074
01076
01080
01081
01089
01092
01093
#485
11000
11005
01006
11007
11009
01018
01022
11026
11027
11032
11035
11037
11045
11053
11057
01058
01059
01060
01061
11063
01071
01072
11074
11076
11080
11081
11083
01084
11088
11089
11092
11093
11094
#490
01000
01005
01009
01026
01027
01032
01045
01074
01076
01080
01081
01089
01092
01093
#495
11000
01001
01003
11005
11006
01007
11009
01023
11026
11027
11032
01034
01035
01037
11045
11049
01050
01051
01052
01053
11061
01063
01067
11072
11074
11076
11080
11081
01083
11085
01088
11089
01090
11092
11093
01094
#500
01000
01005
01009
01026
01027
01032
01045
01074
01076
01080
01081
01089
01092
01093
#505
11000
11005
01006
11007
11009
11018
11022
11026
11027
11032
11037
11045
11053
11060
01061
11071
01072
11074
11076
11080
11081
11083
11084
11088
11089
11092
11093
#510
01000
01005
01009
01026
01027
01032
01045
01074
01076
01080
01081
01089
01092
01093
#515
11000
11001
11005
11006
01007
11009
11010
11026
11027
11032
01037
11038
11045
11052
01053
11061
11070
11072
11074
11076
11080
11081
01083
01088
11089
11092
11093
#520
01000
01005
01009
01026
01027
01032
01045
01074
01076
01080
01081
01089
01092
01093
#525
11000
11005
01006
11007
11009
01018
01022
11026
11027
11032
11035
11037
11045
11053
11059
01060
01061
01071
01072
11074
11076
11080
11081
11083
01084
11088
11089
11092
11093
#530
01000
01005
01009
01026
01027
01032
01045
01074
01076
01080
01081
01089
01092
01093
#535
11000
01001
11003
11005
11006
01007
11009
11011
11012
11026
11027
11032
01035
01037
11045
11051
01052
01053
11061
11069
11072
11074
11076
11080
11081
01083
11087
01088
11089
11092
11093
#540
01000
01005
01009
01026
01027
01032
01045
01074
01076
01080
01081
01089
01092
01093
#545
11000
11005
01006
11007
11009
11018
11022
11026
11027
11032
11037
11045
11053
11060
01061
11071
01072
11074
11076
11080
11081
11083
11084
11088
11089
11092
11093
#550
01000
01005
01009
01026
01027
01032
01045
01074
01076
01080
01081
01089
01092
01093
#555
11000
11001
11005
11006
01007
11009
01010
11026
11027
11032
01037
01038
11045
11052
01053
11061
01070
11072
11074
11076
11080
11081
01083
01088
11089
11092
11093
#560
01000
01005
01009
01026
01027
01032
01045
01074
01076
01080
01081
01089
01092
01093
#565
11000
11005
01006
11007
11009
01018
01022
11026
11027
11032
11035
11037
11045
11053
11058
01059
01060
01061
11063
01071
01072
11074
11076
11080
11081
11083
01084
11088
11089
11092
11093
#570
01000
01005
01009
01026
01027
01032
01045
01074
01076
01080
01081
01089
01092
01093
#575
11000
01001
01003
01004
11005
11006
01007
11009
01020
11026
11027
11032
01035
01037
11045
11050
01051
01052
01053
11061
01063
01068
11072
11074
11076
11080
11081
01083
01088
11089
11090
11092
11093
#580
01000
01005
01009
01026
01027
01032
01045
01074
01076
01080
01081
01089
01092
01093
#585
11000
11005
01006
11007
11009
11018
11022
11026
11027
11032
11037
11045
11053
11060
01061
11071
01072
11074
11076
11080
11081
11083
11084
11088
11089
11092
11093
#590
01000
01005
01009
01026
01027
01032
01045
01074
01076
01080
01081
01089
01092
01093
#595
11000
11001
11005
11006
01007
11009
11010
11026
11027
11032
01037
11038
11045
11052
01053
11061
11070
11072
11074
11076
11080
11081
01083
01088
11089
11092
11093
#600
01000
01005
01009
01026
01027
01032
01045
01074
01076
01080
01081
01089
01092
01093
#605
11000
11005
01006
11007
11009
01018
01022
11026
11027
11032
11035
11037
11045
11053
11059
01060
01061
01071
01072
11074
11076
11080
11081
11083
01084
11088
11089
11092
11093
#610
01000
01005
01009
01026
01027
01032
01045
01074
01076
01080
01081
01089
01092
01093
#615
11000
01001
11003
11005
11006
01007
11009
01011
01012
11026
11027
11032
01035
01037
11045
11051
01052
01053
11061
01069
11072
11074
11076
11080
11081
01083
01087
01088
11089
11092
11093
#620
01000
01005
01009
01026
01027
01032
01045
01074
01076
01080
01081
01089
01092
01093
#625
11000
11005
01006
11007
11009
11018
11022
11026
11027
11032
11037
11045
11053
11060
01061
11071
01072
11074
11076
11080
11081
11083
11084
11088
11089
11092
11093
#630
01000
01005
01009
01026
01027
01032
01045
01074
01076
01080
01081
01089
01092
01093
#635
11000
11001
11005
11006
01007
11009
01010
11026
11027
11032
01037
01038
11045
11052
01053
11061
01070
11072
11074
11076
11080
11081
01083
01088
11089
11092
11093
#640
01000
01005
01009
01026
01027
01032
01045
01074
01076
01080
01081
01089
01092
01093
#645
11000
11005
01006
11007
11009
01018
01022
11025
11026
11027
11029
11032
11035
11037
11045
11053
11055
01056
01057
01058
01059
01060
01061
11063
01071
01072
11074
11076
11080
11081
11083
01084
11088
11089
11092
11093
11094
#650
01000
01005
01009
01026
01027
01032
01045
01074
01076
01080
01081
01089
01092
01093
#655
11000
01001
01003
11005
11006
01007
11009
11024
01025
11026
11027
11028
01029
11032
01035
01037
11045
11047
01048
01049
01050
01051
01052
01053
11061
11062
01063
11065
11072
01073
11074
11076
11080
11081
01083
01085
01088
11089
01090
11092
11093
01094
#660
01000
01005
01009
01026
01027
01032
01045
01074
01076
01080
01081
01089
01092
01093
#665
11000
11005
01006
11007
11009
11018
11022
11026
11027
11032
11037
11045
11053
11060
01061
11071
01072
11074
11076
11080
11081
11083
11084
11088
11089
11092
11093
#670
01000
01005
01009
01026
01027
01032
01045
01074
01076
01080
01081
01089
01092
01093
#675
11000
11001
11005
11006
01007
11009
11010
11026
11027
11032
01037
11038
11045
11052
01053
11061
11070
11072
11074
11076
11080
11081
01083
01088
11089
11092
11093
#680
01000
01005
01009
01026
01027
01032
01045
01074
01076
01080
01081
01089
01092
01093
#685
11000
11005
01006
11007
11009
01018
01022
11026
11027
11032
11035
11037
11045
11053
11059
01060
01061
01071
01072
11074
11076
11080
11081
11083
01084
11088
11089
11092
11093
#690
01000
01005
01009
01026
01027
01032
01045
01074
01076
01080
01081
01089
01092
01093
#695
11000
01001
11003
11005
11006
01007
11009
11011
11012
11026
11027
11032
01035
01037
11045
11051
01052
01053
11061
11069
11072
11074
11076
11080
11081
01083
11087
01088
11089
11092
11093
#700
01000
01005
01009
01026
01027
01032
01045
01074
01076
01080
01081
01089
01092
01093
#705
11000
11005
01006
11007
11009
11018
11022
11026
11027
11032
11037
11045
11053
11060
01061
11071
01072
11074
11076
11080
11081
11083
11084
11088
11089
11092
11093
#710
01000
01005
01009
01026
01027
01032
01045
01074
01076
01080
01081
01089
01092
01093
#715
11000
11001
11005
11006
01007
11009
01010
11026
11027
11032
01037
01038
11045
11052
01053
11061
01070
11072
11074
11076
11080
11081
01083
01088
11089
11092
11093
#720
01000
01005
01009
01026
01027
01032
01045
01074
01076
01080
01081
01089
01092
01093
#725
11000
11005
01006
11007
11009
01018
01022
11026
11027
11032
11035
11037
11045
11053
11058
01059
01060
01061
11063
01071
01072
11074
11076
11080
11081
11083
01084
11088
11089
11092
11093
#730
01000
01005
01009
01026
01027
01032
01045
01074
01076
01080
01081
01089
01092
01093
#735
11000
01001
01003
11004
11005
11006
01007
11009
11020
11026
11027
11032
01035
01037
11045
11050
01051
01052
01053
11061
01063
11068
11072
11074
11076
11080
11081
01083
01088
11089
11090
11092
11093
#740
01000
01005
01009
01026
01027
01032
01045
01074
01076
01080
01081
01089
01092
01093
#745
11000
11005
01006
11007
11009
11018
11022
11026
11027
11032
11037
11045
11053
11060
01061
11071
01072
11074
11076
11080
11081
11083
11084
11088
11089
11092
11093
#750
01000
01005
01009
01026
01027
01032
01045
01074
01076
01080
01081
01089
01092
01093
#755
11000
11001
11005
11006
01007
11009
11010
11026
11027
11032
01037
11038
11045
11052
01053
11061
11070
11072
11074
11076
11080
11081
01083
01088
11089
11092
11093
#760
01000
01005
01009
01026
01027
01032
01045
01074
01076
01080
01081
01089
01092
01093
#765
11000
11005
01006
11007
11009
01018
01022
11026
11027
11032
11035
11037
11045
11053
11059
01060
01061
01071
01072
11074
11076
11080
11081
11083
01084
11088
11089
11092
11093
#770
01000
01005
01009
01026
01027
01032
01045
01074
01076
01080
01081
01089
01092
01093
#775
11000
01001
11003
11005
11006
01007
11009
01011
01012
11026
11027
11032
01035
01037
11045
11051
01052
01053
11061
01069
11072
11074
11076
11080
11081
01083
01087
01088
11089
11092
11093
#780
01000
01005
01009
01026
01027
01032
01045
01074
01076
01080
01081
01089
01092
01093
#785
11000
11005
01006
11007
11009
11018
11022
11026
11027
11032
11037
11045
11053
11060
01061
11071
01072
11074
11076
11080
11081
11083
11084
11088
11089
11092
11093
#790
01000
01005
01009
01026
01027
01032
01045
01074
01076
01080
01081
01089
01092
01093
#795
11000
11001
11005
11006
01007
11009
01010
11026
11027
11032
01037
01038
11045
11052
01053
11061
01070
11072
11074
11076
11080
11081
01083
01088
11089
11092
11093
#800
01000
01005
01009
01026
01027
01032
01045
01074
01076
01080
01081
01089
01092
01093
#805
11000
11005
01006
11007
11009
01018
01022
11026
11027
11032
11035
11037
11045
11053
11057
01058
01059
01060
01061
11063
01071
01072
11074
11076
11080
11081
11083
01084
11088
11089
11092
11093
11094
#810
01000
01005
01009
01026
01027
01032
01045
01074
01076
01080
01081
01089
01092
01093
#815
11000
01001
01003
11005
11006
01007
11009
11023
11026
11027
11032
11034
01035
01037
11045
11049
01050
01051
01052
01053
11061
01063
11067
11072
11074
11076
11080
11081
01083
11085
01088
11089
01090
11092
11093
01094
#820
01000
01005
01009
01026
01027
01032
01045
01074
01076
01080
01081
01089
01092
01093
#825
11000
11005
01006
11007
11009
11018
11022
11026
11027
11032
11037
11045
11053
11060
01061
11071
01072
11074
11076
11080
11081
11083
11084
11088
11089
11092
11093
#830
01000
01005
01009
01026
01027
01032
01045
01074
01076
01080
01081
01089
01092
01093
#835
11000
11001
11005
11006
01007
11009
11010
11026
11027
11032
01037
11038
11045
11052
01053
11061
11070
11072
11074
11076
11080
11081
01083
01088
11089
11092
11093
#840
01000
01005
01009
01026
01027
01032
01045
01074
01076
01080
01081
01089
01092
01093
